(module JST-XH_LED (layer F.Cu) (tedit 5BE4259C)
  (descr "JST XH series connector, S04B-XH-A (http://www.jst-mfg.com/product/pdf/eng/eXH.pdf), generated with kicad-footprint-generator")
  (tags "connector JST XH top entry")
  (attr smd)
  (fp_text reference J2 (at 5.8 -13) (layer F.SilkS)
    (effects (font (size 1 1) (thickness 0.15)))
  )
  (fp_text value JST-XH_LED (at 6.599999 1.6) (layer F.Fab)
    (effects (font (size 1 1) (thickness 0.15)))
  )
  (fp_line (start 0 -0.199999) (end 9.6 -0.199999) (layer F.SilkS) (width 0.15))
  (fp_text user %R (at 9.75 -13) (layer F.Fab)
    (effects (font (size 1 1) (thickness 0.15)))
  )
  (fp_line (start 2.300001 -8.55) (end 2.925 -7.55) (layer F.Fab) (width 0.1))
  (fp_line (start 1.675 -7.55) (end 2.300001 -8.55) (layer F.Fab) (width 0.1))
  (fp_line (start 2.6 -11.85) (end 2.3 -11.25) (layer F.SilkS) (width 0.12))
  (fp_line (start 2 -11.85) (end 2.6 -11.85) (layer F.SilkS) (width 0.12))
  (fp_line (start 2.3 -11.25) (end 2 -11.85) (layer F.SilkS) (width 0.12))
  (fp_line (start 7.55 -6.55) (end 7.05 -6.55) (layer F.SilkS) (width 0.12))
  (fp_line (start 7.55 -1.05) (end 7.55 -6.55) (layer F.SilkS) (width 0.12))
  (fp_line (start 7.05 -1.05) (end 7.55 -1.05) (layer F.SilkS) (width 0.12))
  (fp_line (start 7.05 -6.55) (end 7.05 -1.05) (layer F.SilkS) (width 0.12))
  (fp_line (start 5.05 -6.55) (end 4.549999 -6.55) (layer F.SilkS) (width 0.12))
  (fp_line (start 5.05 -1.05) (end 5.05 -6.55) (layer F.SilkS) (width 0.12))
  (fp_line (start 4.55 -1.05) (end 5.05 -1.05) (layer F.SilkS) (width 0.12))
  (fp_line (start 4.549999 -6.55) (end 4.55 -1.05) (layer F.SilkS) (width 0.12))
  (fp_line (start 2.55 -6.55) (end 2.049999 -6.55) (layer F.SilkS) (width 0.12))
  (fp_line (start 2.55 -1.05) (end 2.55 -6.55) (layer F.SilkS) (width 0.12))
  (fp_line (start 2.05 -1.050001) (end 2.55 -1.05) (layer F.SilkS) (width 0.12))
  (fp_line (start 2.049999 -6.55) (end 2.05 -1.050001) (layer F.SilkS) (width 0.12))
  (fp_line (start -2.25 0.25) (end -2.25 -4.25) (layer F.CrtYd) (width 0.15))
  (fp_line (start -2.25 -4.25) (end -0.25 -5) (layer F.CrtYd) (width 0.15))
  (fp_line (start -0.25 -5) (end -0.25 -11.75) (layer F.CrtYd) (width 0.15))
  (fp_line (start -0.25 -11.75) (end 9.75 -11.75) (layer F.CrtYd) (width 0.15))
  (fp_line (start 9.75 -11.75) (end 9.75 -5) (layer F.CrtYd) (width 0.15))
  (fp_line (start 11.75 -4.25) (end 11.75 0.25) (layer F.CrtYd) (width 0.15))
  (fp_line (start 11.75 0.25) (end -2.25 0.25) (layer F.CrtYd) (width 0.15))
  (fp_line (start 9.75 -5) (end 11.75 -4.25) (layer F.CrtYd) (width 0.15))
  (pad "" smd rect (at 9.6 0) (size 1.8 4) (drill (offset 0.9 -2)) (layers F.Cu F.Paste F.Mask))
  (pad "" smd rect (at 0 0) (size 1.8 4) (drill (offset -0.9 -2)) (layers F.Cu F.Paste F.Mask))
  (pad 3 smd rect (at 7.3 -8.75) (size 1.3 4.5) (layers F.Cu F.Paste F.Mask)
    (zone_connect 2))
  (pad 2 smd rect (at 4.8 -8.75) (size 1.3 4.5) (layers F.Cu F.Paste F.Mask))
  (pad 1 smd rect (at 2.300001 -8.75) (size 1.3 4.5) (layers F.Cu F.Paste F.Mask))
  (model ${ALT3DMOD}/JST/S3B-XH-SM4-TB.STEP
    (offset (xyz 4.75 5 0))
    (scale (xyz 1 1 1))
    (rotate (xyz -90 0 0))
  )
)
