(module Pin_Header_Straight_2x04_Pitch2.54mm (layer F.Cu) (tedit 5ABA0C38)
  (descr "Through hole straight pin header, 2x04, 2.54mm pitch, double rows")
  (tags "Through hole pin header THT 2x04 2.54mm double row")
  (fp_text reference REF** (at 1.27 10.795) (layer F.SilkS)
    (effects (font (size 1 1) (thickness 0.15)))
  )
  (fp_text value NRF24_2x04_Pitch2.54mm (at 13.335 12.7) (layer F.Fab)
    (effects (font (size 1 1) (thickness 0.15)))
  )
  (fp_line (start 12.7 6.35) (end 5.08 6.35) (layer F.SilkS) (width 0.15))
  (fp_line (start 5.08 3.81) (end 12.7 3.81) (layer F.SilkS) (width 0.15))
  (fp_line (start 12.7 1.27) (end 5.08 1.27) (layer F.SilkS) (width 0.15))
  (fp_line (start 8.89 -1.27) (end 8.89 8.89) (layer F.SilkS) (width 0.15))
  (fp_line (start 8.89 8.89) (end 5.08 8.89) (layer F.SilkS) (width 0.15))
  (fp_line (start 5.08 8.89) (end 5.08 -1.27) (layer F.SilkS) (width 0.15))
  (fp_line (start 5.08 -1.27) (end 8.89 -1.27) (layer F.SilkS) (width 0.15))
  (fp_line (start 8.89 -1.27) (end 12.7 -1.27) (layer F.SilkS) (width 0.15))
  (fp_line (start 12.7 -1.27) (end 12.7 8.89) (layer F.SilkS) (width 0.15))
  (fp_line (start 12.7 8.89) (end 8.89 8.89) (layer F.SilkS) (width 0.15))
  (fp_text user IRQ (at 10.795 7.62) (layer F.SilkS)
    (effects (font (size 1 1) (thickness 0.15)))
  )
  (fp_text user MISO (at 6.985 7.62) (layer F.SilkS)
    (effects (font (size 1 1) (thickness 0.15)))
  )
  (fp_text user MOSI (at 10.795 5.08) (layer F.SilkS)
    (effects (font (size 1 1) (thickness 0.15)))
  )
  (fp_text user SCK (at 6.985 5.08) (layer F.SilkS)
    (effects (font (size 1 1) (thickness 0.15)))
  )
  (fp_text user CE (at 6.985 2.54) (layer F.SilkS)
    (effects (font (size 1 1) (thickness 0.15)))
  )
  (fp_text user CSN (at 10.795 2.54) (layer F.SilkS)
    (effects (font (size 1 1) (thickness 0.15)))
  )
  (fp_text user VCC (at 10.795 0) (layer F.SilkS)
    (effects (font (size 1 1) (thickness 0.15)))
  )
  (fp_text user GND (at 6.985 0) (layer F.SilkS)
    (effects (font (size 1 1) (thickness 0.15)))
  )
  (fp_text user NRF24 (at 8.255 10.16) (layer F.SilkS)
    (effects (font (size 1 1) (thickness 0.15)))
  )
  (fp_line (start 27.94 13.335) (end -1.905 13.335) (layer F.SilkS) (width 0.15))
  (fp_line (start -1.905 13.335) (end -1.905 -2.54) (layer F.SilkS) (width 0.15))
  (fp_line (start 27.94 -2.54) (end 27.94 13.335) (layer F.SilkS) (width 0.15))
  (fp_line (start -1.905 -2.54) (end 27.94 -2.54) (layer F.SilkS) (width 0.15))
  (fp_line (start 0 -1.27) (end 3.81 -1.27) (layer F.Fab) (width 0.1))
  (fp_line (start 3.81 -1.27) (end 3.81 8.89) (layer F.Fab) (width 0.1))
  (fp_line (start 3.81 8.89) (end -1.27 8.89) (layer F.Fab) (width 0.1))
  (fp_line (start -1.27 8.89) (end -1.27 0) (layer F.Fab) (width 0.1))
  (fp_line (start -1.27 0) (end 0 -1.27) (layer F.Fab) (width 0.1))
  (fp_line (start -1.33 8.95) (end 3.87 8.95) (layer F.SilkS) (width 0.12))
  (fp_line (start -1.33 1.27) (end -1.33 8.95) (layer F.SilkS) (width 0.12))
  (fp_line (start 3.87 -1.33) (end 3.87 8.95) (layer F.SilkS) (width 0.12))
  (fp_line (start -1.33 1.27) (end 1.27 1.27) (layer F.SilkS) (width 0.12))
  (fp_line (start 1.27 1.27) (end 1.27 -1.33) (layer F.SilkS) (width 0.12))
  (fp_line (start 1.27 -1.33) (end 3.87 -1.33) (layer F.SilkS) (width 0.12))
  (fp_line (start -1.33 0) (end -1.33 -1.33) (layer F.SilkS) (width 0.12))
  (fp_line (start -1.33 -1.33) (end 0 -1.33) (layer F.SilkS) (width 0.12))
  (fp_line (start -1.8 -1.8) (end -1.8 9.4) (layer F.CrtYd) (width 0.05))
  (fp_line (start -1.8 9.4) (end 4.35 9.4) (layer F.CrtYd) (width 0.05))
  (fp_line (start 4.35 9.4) (end 4.35 -1.8) (layer F.CrtYd) (width 0.05))
  (fp_line (start 4.35 -1.8) (end -1.8 -1.8) (layer F.CrtYd) (width 0.05))
  (fp_text user %R (at 1.27 3.81 90) (layer F.Fab)
    (effects (font (size 1 1) (thickness 0.15)))
  )
  (pad 1 thru_hole rect (at 0 0) (size 1.7 1.7) (drill 1) (layers *.Cu *.Mask))
  (pad 2 thru_hole oval (at 2.54 0) (size 1.7 1.7) (drill 1) (layers *.Cu *.Mask))
  (pad 3 thru_hole oval (at 0 2.54) (size 1.7 1.7) (drill 1) (layers *.Cu *.Mask))
  (pad 4 thru_hole oval (at 2.54 2.54) (size 1.7 1.7) (drill 1) (layers *.Cu *.Mask))
  (pad 5 thru_hole oval (at 0 5.08) (size 1.7 1.7) (drill 1) (layers *.Cu *.Mask))
  (pad 6 thru_hole oval (at 2.54 5.08) (size 1.7 1.7) (drill 1) (layers *.Cu *.Mask))
  (pad 7 thru_hole oval (at 0 7.62) (size 1.7 1.7) (drill 1) (layers *.Cu *.Mask))
  (pad 8 thru_hole oval (at 2.54 7.62) (size 1.7 1.7) (drill 1) (layers *.Cu *.Mask))
)
