ISO-10303-21;
HEADER;
FILE_DESCRIPTION(('STEP AP214'),'1');
FILE_NAME('C:/userdata/SSL_2011/OSLON_square_111122_V3.step','2011-11-22T09:27:05',(' '),(' '),'Spatial InterOp 3D',' ',' ');
FILE_SCHEMA(('automotive_design'));
ENDSEC;
DATA;
#1=PRODUCT_DEFINITION_CONTEXT('',#9,'design');
#2=APPLICATION_PROTOCOL_DEFINITION('INTERNATIONAL STANDARD','automotive_design',1994,#9);
#3=PRODUCT_CATEGORY_RELATIONSHIP('NONE','NONE',#10,#11);
#4=SHAPE_DEFINITION_REPRESENTATION(#12,#13);
#5= (GEOMETRIC_REPRESENTATION_CONTEXT(3)GLOBAL_UNCERTAINTY_ASSIGNED_CONTEXT((#16))GLOBAL_UNIT_ASSIGNED_CONTEXT((#18,#19,#20))REPRESENTATION_CONTEXT('NONE','WORKSPACE'));
#9=APPLICATION_CONTEXT(' ');
#10=PRODUCT_CATEGORY('part','NONE');
#11=PRODUCT_RELATED_PRODUCT_CATEGORY('detail',' ',(#22));
#12=PRODUCT_DEFINITION_SHAPE('NONE','NONE',#23);
#13=ADVANCED_BREP_SHAPE_REPRESENTATION('1',(#24,#25),#5);
#16=UNCERTAINTY_MEASURE_WITH_UNIT(LENGTH_MEASURE(1.0E-006),#18,'','');
#18= (CONVERSION_BASED_UNIT('MILLIMETRE',#28)LENGTH_UNIT()NAMED_UNIT(#31));
#19= (NAMED_UNIT(#33)PLANE_ANGLE_UNIT()SI_UNIT($,.RADIAN.));
#20= (NAMED_UNIT(#33)SOLID_ANGLE_UNIT()SI_UNIT($,.STERADIAN.));
#22=PRODUCT('1','1','PART-1-DESC',(#39));
#23=PRODUCT_DEFINITION('NONE','NONE',#40,#1);
#24=MANIFOLD_SOLID_BREP('1',#41);
#25=AXIS2_PLACEMENT_3D('',#42,#43,#44);
#28=LENGTH_MEASURE_WITH_UNIT(LENGTH_MEASURE(1.0),#45);
#31=DIMENSIONAL_EXPONENTS(1.0,0.0,0.0,0.0,0.0,0.0,0.0);
#33=DIMENSIONAL_EXPONENTS(0.0,0.0,0.0,0.0,0.0,0.0,0.0);
#39=PRODUCT_CONTEXT('',#9,'mechanical');
#40=PRODUCT_DEFINITION_FORMATION_WITH_SPECIFIED_SOURCE(' ','NONE',#22,.NOT_KNOWN.);
#41=CLOSED_SHELL('',(#46,#47,#48,#49,#50,#51,#52,#53,#54,#55,#56,#57,#58,#59,#60,#61,#62,#63,#64,#65,#66,#67,#68,#69,#70,#71,#72,#73,#74,#75,#76,#77,#78,#79,#80,#81,#82,#83,#84,#85,#86));
#42=CARTESIAN_POINT('',(0.0,0.0,0.0));
#43=DIRECTION('',(0.0,0.0,1.0));
#44=DIRECTION('',(1.0,0.0,0.0));
#45= (NAMED_UNIT(#31)LENGTH_UNIT()SI_UNIT(.MILLI.,.METRE.));
#46=ADVANCED_FACE('',(#88),#89,.T.);
#47=ADVANCED_FACE('',(#90),#91,.T.);
#48=ADVANCED_FACE('',(#92),#93,.F.);
#49=ADVANCED_FACE('',(#94,#95),#96,.T.);
#50=ADVANCED_FACE('',(#97),#98,.F.);
#51=ADVANCED_FACE('',(#99),#100,.F.);
#52=ADVANCED_FACE('',(#101),#102,.F.);
#53=ADVANCED_FACE('',(#103),#104,.F.);
#54=ADVANCED_FACE('',(#105),#106,.F.);
#55=ADVANCED_FACE('',(#107),#108,.F.);
#56=ADVANCED_FACE('',(#109),#110,.F.);
#57=ADVANCED_FACE('',(#111),#112,.F.);
#58=ADVANCED_FACE('',(#113),#114,.T.);
#59=ADVANCED_FACE('',(#115),#116,.F.);
#60=ADVANCED_FACE('',(#117),#118,.T.);
#61=ADVANCED_FACE('',(#119),#120,.F.);
#62=ADVANCED_FACE('',(#121),#122,.T.);
#63=ADVANCED_FACE('',(#123),#124,.F.);
#64=ADVANCED_FACE('',(#125),#126,.T.);
#65=ADVANCED_FACE('',(#127),#128,.F.);
#66=ADVANCED_FACE('',(#129),#130,.T.);
#67=ADVANCED_FACE('',(#131),#132,.F.);
#68=ADVANCED_FACE('',(#133),#134,.T.);
#69=ADVANCED_FACE('',(#135),#136,.F.);
#70=ADVANCED_FACE('',(#137),#138,.T.);
#71=ADVANCED_FACE('',(#139),#140,.F.);
#72=ADVANCED_FACE('',(#141),#142,.T.);
#73=ADVANCED_FACE('',(#143),#144,.F.);
#74=ADVANCED_FACE('',(#145),#146,.T.);
#75=ADVANCED_FACE('',(#147),#148,.F.);
#76=ADVANCED_FACE('',(#149),#150,.T.);
#77=ADVANCED_FACE('',(#151),#152,.F.);
#78=ADVANCED_FACE('',(#153),#154,.T.);
#79=ADVANCED_FACE('',(#155),#156,.F.);
#80=ADVANCED_FACE('',(#157),#158,.T.);
#81=ADVANCED_FACE('',(#159),#160,.F.);
#82=ADVANCED_FACE('',(#161),#162,.T.);
#83=ADVANCED_FACE('',(#163),#164,.F.);
#84=ADVANCED_FACE('',(#165),#166,.T.);
#85=ADVANCED_FACE('',(#167,#168,#169,#170),#171,.T.);
#86=ADVANCED_FACE('',(#172),#173,.F.);
#88=FACE_OUTER_BOUND('',#174,.T.);
#89=(B_SPLINE_SURFACE(3,3,((#176,#177,#178,#179),(#180,#181,#182,#183),(#184,#185,#186,#187),(#188,#189,#190,#191)),.UNSPECIFIED.,.F.,.F.,.F.)B_SPLINE_SURFACE_WITH_KNOTS((4,4),(4,4),(-1.0,-0.000337511771607536),(0.0,1.0),.UNSPECIFIED.)RATIONAL_B_SPLINE_SURFACE(((1.0,0.333333333333333,0.333333333333333,1.0),(1.29258414289611,0.430861380965371,0.430861380965371,1.29258414289611),(1.29268289348853,0.430894297829509,0.430894297829509,1.29268289348853),(1.00029625177724,0.333432083925747,0.333432083925747,1.00029625177724)))BOUNDED_SURFACE()REPRESENTATION_ITEM('')GEOMETRIC_REPRESENTATION_ITEM()SURFACE());
#90=FACE_OUTER_BOUND('',#198,.T.);
#91=(B_SPLINE_SURFACE(3,3,((#200,#201,#202,#203),(#204,#205,#206,#207),(#208,#209,#210,#211),(#212,#213,#214,#215)),.UNSPECIFIED.,.F.,.F.,.F.)B_SPLINE_SURFACE_WITH_KNOTS((4,4),(4,4),(-1.0,-0.000337511771607536),(0.0,1.0),.UNSPECIFIED.)RATIONAL_B_SPLINE_SURFACE(((1.0,0.333333333333333,0.333333333333333,1.0),(1.29258414289611,0.430861380965371,0.430861380965371,1.29258414289611),(1.29268289348853,0.430894297829509,0.430894297829509,1.29268289348853),(1.00029625177724,0.333432083925746,0.333432083925746,1.00029625177724)))BOUNDED_SURFACE()REPRESENTATION_ITEM('')GEOMETRIC_REPRESENTATION_ITEM()SURFACE());
#92=FACE_OUTER_BOUND('',#222,.T.);
#93=(B_SPLINE_SURFACE(3,3,((#224,#225,#226,#227),(#228,#229,#230,#231),(#232,#233,#234,#235),(#236,#237,#238,#239)),.UNSPECIFIED.,.F.,.F.,.F.)B_SPLINE_SURFACE_WITH_KNOTS((4,4),(4,4),(0.0,1.0),(0.0,1.0),.UNSPECIFIED.)RATIONAL_B_SPLINE_SURFACE(((1.0,0.333333333333333,0.333333333333333,1.0),(0.87332108410705,0.291107028035683,0.291107028035683,0.87332108410705),(0.87332108410705,0.291107028035683,0.291107028035683,0.87332108410705),(1.0,0.333333333333333,0.333333333333333,1.0)))BOUNDED_SURFACE()REPRESENTATION_ITEM('')GEOMETRIC_REPRESENTATION_ITEM()SURFACE());
#94=FACE_OUTER_BOUND('',#246,.T.);
#95=FACE_BOUND('',#247,.T.);
#96=PLANE('',#248);
#97=FACE_OUTER_BOUND('',#249,.T.);
#98=(B_SPLINE_SURFACE(3,3,((#251,#252,#253,#254),(#255,#256,#257,#258),(#259,#260,#261,#262),(#263,#264,#265,#266)),.UNSPECIFIED.,.F.,.F.,.F.)B_SPLINE_SURFACE_WITH_KNOTS((4,4),(4,4),(0.0,1.0),(0.0,1.0),.UNSPECIFIED.)RATIONAL_B_SPLINE_SURFACE(((1.0,0.333333333333331,0.333333333333331,1.0),(0.87332108410705,0.291107028035681,0.291107028035681,0.87332108410705),(0.87332108410705,0.291107028035681,0.291107028035681,0.87332108410705),(1.0,0.333333333333331,0.333333333333331,1.0)))BOUNDED_SURFACE()REPRESENTATION_ITEM('')GEOMETRIC_REPRESENTATION_ITEM()SURFACE());
#99=FACE_OUTER_BOUND('',#273,.T.);
#100=PLANE('',#274);
#101=FACE_OUTER_BOUND('',#275,.T.);
#102=PLANE('',#276);
#103=FACE_OUTER_BOUND('',#277,.T.);
#104=PLANE('',#278);
#105=FACE_OUTER_BOUND('',#279,.T.);
#106=PLANE('',#280);
#107=FACE_OUTER_BOUND('',#281,.T.);
#108=PLANE('',#282);
#109=FACE_OUTER_BOUND('',#283,.T.);
#110=PLANE('',#284);
#111=FACE_OUTER_BOUND('',#285,.T.);
#112=PLANE('',#286);
#113=FACE_OUTER_BOUND('',#287,.T.);
#114=CYLINDRICAL_SURFACE('',#288,0.1);
#115=FACE_OUTER_BOUND('',#289,.T.);
#116=PLANE('',#290);
#117=FACE_OUTER_BOUND('',#291,.T.);
#118=CYLINDRICAL_SURFACE('',#292,0.1);
#119=FACE_OUTER_BOUND('',#293,.T.);
#120=PLANE('',#294);
#121=FACE_OUTER_BOUND('',#295,.T.);
#122=CYLINDRICAL_SURFACE('',#296,0.1);
#123=FACE_OUTER_BOUND('',#297,.T.);
#124=PLANE('',#298);
#125=FACE_OUTER_BOUND('',#299,.T.);
#126=CYLINDRICAL_SURFACE('',#300,0.1);
#127=FACE_OUTER_BOUND('',#301,.T.);
#128=PLANE('',#302);
#129=FACE_OUTER_BOUND('',#303,.T.);
#130=CYLINDRICAL_SURFACE('',#304,0.1);
#131=FACE_OUTER_BOUND('',#305,.T.);
#132=PLANE('',#306);
#133=FACE_OUTER_BOUND('',#307,.T.);
#134=CYLINDRICAL_SURFACE('',#308,0.0999999999999998);
#135=FACE_OUTER_BOUND('',#309,.T.);
#136=PLANE('',#310);
#137=FACE_OUTER_BOUND('',#311,.T.);
#138=CYLINDRICAL_SURFACE('',#312,0.0999999999999998);
#139=FACE_OUTER_BOUND('',#313,.T.);
#140=PLANE('',#314);
#141=FACE_OUTER_BOUND('',#315,.T.);
#142=CYLINDRICAL_SURFACE('',#316,0.1);
#143=FACE_OUTER_BOUND('',#317,.T.);
#144=PLANE('',#318);
#145=FACE_OUTER_BOUND('',#319,.T.);
#146=CYLINDRICAL_SURFACE('',#320,0.1);
#147=FACE_OUTER_BOUND('',#321,.T.);
#148=PLANE('',#322);
#149=FACE_OUTER_BOUND('',#323,.T.);
#150=CYLINDRICAL_SURFACE('',#324,0.1);
#151=FACE_OUTER_BOUND('',#325,.T.);
#152=PLANE('',#326);
#153=FACE_OUTER_BOUND('',#327,.T.);
#154=CYLINDRICAL_SURFACE('',#328,0.0999999999999999);
#155=FACE_OUTER_BOUND('',#329,.T.);
#156=PLANE('',#330);
#157=FACE_OUTER_BOUND('',#331,.T.);
#158=CYLINDRICAL_SURFACE('',#332,0.05);
#159=FACE_OUTER_BOUND('',#333,.T.);
#160=CYLINDRICAL_SURFACE('',#334,0.2);
#161=FACE_OUTER_BOUND('',#335,.T.);
#162=CYLINDRICAL_SURFACE('',#336,0.05);
#163=FACE_OUTER_BOUND('',#337,.T.);
#164=PLANE('',#338);
#165=FACE_OUTER_BOUND('',#339,.T.);
#166=CYLINDRICAL_SURFACE('',#340,0.0999999999999999);
#167=FACE_OUTER_BOUND('',#341,.T.);
#168=FACE_BOUND('',#342,.T.);
#169=FACE_BOUND('',#343,.T.);
#170=FACE_BOUND('',#344,.T.);
#171=PLANE('',#345);
#172=FACE_OUTER_BOUND('',#346,.T.);
#173=PLANE('',#347);
#174=EDGE_LOOP('',(#348,#349,#350,#351));
#176=CARTESIAN_POINT('',(-0.003772819,-0.007221095,1.932));
#177=CARTESIAN_POINT('',(-0.003772819,-0.007221095,1.932));
#178=CARTESIAN_POINT('',(-0.003772819,-0.007221095,1.932));
#179=CARTESIAN_POINT('',(-0.003772819,-0.007221095,1.932));
#180=CARTESIAN_POINT('',(-0.003772819,0.645586264584128,1.932));
#181=CARTESIAN_POINT('',(-1.30938753965249,0.645586264584128,1.932));
#182=CARTESIAN_POINT('',(-1.30938753965249,-0.660028455326247,1.932));
#183=CARTESIAN_POINT('',(-0.003772819,-0.660028455326247,1.932));
#184=CARTESIAN_POINT('',(-0.003772819,0.922255512610798,1.66658176317807));
#185=CARTESIAN_POINT('',(-1.86272603596366,0.922255512610797,1.66658176317807));
#186=CARTESIAN_POINT('',(-1.86272603596366,-0.936697703610798,1.66658176317807));
#187=CARTESIAN_POINT('',(-0.003772819,-0.936697703610798,1.66658176317807));
#188=CARTESIAN_POINT('',(-0.003772819,1.06559129,0.903));
#189=CARTESIAN_POINT('',(-2.14939759,1.06559129,0.903));
#190=CARTESIAN_POINT('',(-2.14939759,-1.080033481,0.903));
#191=CARTESIAN_POINT('',(-0.003772819,-1.080033481,0.903));
#198=EDGE_LOOP('',(#352,#353,#354,#355));
#200=CARTESIAN_POINT('',(-0.003772819,-0.007221095,1.932));
#201=CARTESIAN_POINT('',(-0.003772819,-0.007221095,1.932));
#202=CARTESIAN_POINT('',(-0.003772819,-0.007221095,1.932));
#203=CARTESIAN_POINT('',(-0.003772819,-0.007221095,1.932));
#204=CARTESIAN_POINT('',(-0.003772819,-0.660028455326247,1.932));
#205=CARTESIAN_POINT('',(1.30184190091038,-0.660028455326247,1.932));
#206=CARTESIAN_POINT('',(1.30184190091038,0.645586264584128,1.932));
#207=CARTESIAN_POINT('',(-0.003772819,0.645586264584128,1.932));
#208=CARTESIAN_POINT('',(-0.003772819,-0.936697703610798,1.66658176317807));
#209=CARTESIAN_POINT('',(1.85518039696366,-0.936697703610798,1.66658176317807));
#210=CARTESIAN_POINT('',(1.85518039696366,0.922255512610797,1.66658176317807));
#211=CARTESIAN_POINT('',(-0.003772819,0.922255512610798,1.66658176317807));
#212=CARTESIAN_POINT('',(-0.003772819,-1.080033481,0.903));
#213=CARTESIAN_POINT('',(2.141851951,-1.080033481,0.903));
#214=CARTESIAN_POINT('',(2.141851951,1.06559129,0.903));
#215=CARTESIAN_POINT('',(-0.003772819,1.06559129,0.903));
#222=EDGE_LOOP('',(#356,#357,#358,#359,#360));
#224=CARTESIAN_POINT('',(-1.245559348,-0.007221095,0.74));
#225=CARTESIAN_POINT('',(-1.245559348,-2.490794151,0.74));
#226=CARTESIAN_POINT('',(1.238013709,-2.490794151,0.74));
#227=CARTESIAN_POINT('',(1.238013709,-0.007221095,0.74));
#228=CARTESIAN_POINT('',(-1.156918302,-0.007221095,0.752630665));
#229=CARTESIAN_POINT('',(-1.156918302,-2.313512061,0.752630665));
#230=CARTESIAN_POINT('',(1.149372664,-2.313512061,0.752630665));
#231=CARTESIAN_POINT('',(1.149372664,-0.007221095,0.752630665));
#232=CARTESIAN_POINT('',(-1.092528004,-0.007221095,0.814845278));
#233=CARTESIAN_POINT('',(-1.092528004,-2.184731465,0.814845278));
#234=CARTESIAN_POINT('',(1.084982365,-2.184731465,0.814845278));
#235=CARTESIAN_POINT('',(1.084982365,-0.007221095,0.814845278));
#236=CARTESIAN_POINT('',(-1.076859133,-0.007221095,0.903));
#237=CARTESIAN_POINT('',(-1.076859133,-2.153393722,0.903));
#238=CARTESIAN_POINT('',(1.069313494,-2.153393722,0.903));
#239=CARTESIAN_POINT('',(1.069313494,-0.007221095,0.903));
#246=EDGE_LOOP('',(#361,#362,#363,#364));
#247=EDGE_LOOP('',(#365,#366));
#248=AXIS2_PLACEMENT_3D('',#367,#368,#369);
#249=EDGE_LOOP('',(#370,#371,#372,#373,#374));
#251=CARTESIAN_POINT('',(1.238013709,-0.007221095,0.74));
#252=CARTESIAN_POINT('',(1.238013709,2.476351961,0.74));
#253=CARTESIAN_POINT('',(-1.245559348,2.476351961,0.74));
#254=CARTESIAN_POINT('',(-1.245559348,-0.007221095,0.74));
#255=CARTESIAN_POINT('',(1.149372664,-0.007221095,0.752630665));
#256=CARTESIAN_POINT('',(1.149372664,2.299069871,0.752630665));
#257=CARTESIAN_POINT('',(-1.156918302,2.299069871,0.752630665));
#258=CARTESIAN_POINT('',(-1.156918302,-0.007221095,0.752630665));
#259=CARTESIAN_POINT('',(1.084982365,-0.007221095,0.814845278));
#260=CARTESIAN_POINT('',(1.084982365,2.170289275,0.814845278));
#261=CARTESIAN_POINT('',(-1.092528004,2.170289275,0.814845278));
#262=CARTESIAN_POINT('',(-1.092528004,-0.007221095,0.814845278));
#263=CARTESIAN_POINT('',(1.069313494,-0.007221095,0.903));
#264=CARTESIAN_POINT('',(1.069313494,2.138951531,0.903));
#265=CARTESIAN_POINT('',(-1.076859133,2.138951531,0.903));
#266=CARTESIAN_POINT('',(-1.076859133,-0.007221095,0.903));
#273=EDGE_LOOP('',(#375,#376,#377,#378,#379,#380,#381,#382));
#274=AXIS2_PLACEMENT_3D('',#383,#384,#385);
#275=EDGE_LOOP('',(#386,#387,#388,#389,#390,#391,#392,#393));
#276=AXIS2_PLACEMENT_3D('',#394,#395,#396);
#277=EDGE_LOOP('',(#397,#398,#399,#400,#401,#402,#403,#404,#405,#406,#407,#408));
#278=AXIS2_PLACEMENT_3D('',#409,#410,#411);
#279=EDGE_LOOP('',(#412,#413,#414,#415));
#280=AXIS2_PLACEMENT_3D('',#416,#417,#418);
#281=EDGE_LOOP('',(#419,#420,#421,#422));
#282=AXIS2_PLACEMENT_3D('',#423,#424,#425);
#283=EDGE_LOOP('',(#426,#427,#428,#429));
#284=AXIS2_PLACEMENT_3D('',#430,#431,#432);
#285=EDGE_LOOP('',(#433,#434,#435,#436));
#286=AXIS2_PLACEMENT_3D('',#437,#438,#439);
#287=EDGE_LOOP('',(#440,#441,#442,#443));
#288=AXIS2_PLACEMENT_3D('',#444,#445,#446);
#289=EDGE_LOOP('',(#447,#448,#449,#450));
#290=AXIS2_PLACEMENT_3D('',#451,#452,#453);
#291=EDGE_LOOP('',(#454,#455,#456,#457));
#292=AXIS2_PLACEMENT_3D('',#458,#459,#460);
#293=EDGE_LOOP('',(#461,#462,#463,#464));
#294=AXIS2_PLACEMENT_3D('',#465,#466,#467);
#295=EDGE_LOOP('',(#468,#469,#470,#471));
#296=AXIS2_PLACEMENT_3D('',#472,#473,#474);
#297=EDGE_LOOP('',(#475,#476,#477,#478));
#298=AXIS2_PLACEMENT_3D('',#479,#480,#481);
#299=EDGE_LOOP('',(#482,#483,#484,#485));
#300=AXIS2_PLACEMENT_3D('',#486,#487,#488);
#301=EDGE_LOOP('',(#489,#490,#491,#492));
#302=AXIS2_PLACEMENT_3D('',#493,#494,#495);
#303=EDGE_LOOP('',(#496,#497,#498,#499));
#304=AXIS2_PLACEMENT_3D('',#500,#501,#502);
#305=EDGE_LOOP('',(#503,#504,#505,#506));
#306=AXIS2_PLACEMENT_3D('',#507,#508,#509);
#307=EDGE_LOOP('',(#510,#511,#512,#513));
#308=AXIS2_PLACEMENT_3D('',#514,#515,#516);
#309=EDGE_LOOP('',(#517,#518,#519,#520));
#310=AXIS2_PLACEMENT_3D('',#521,#522,#523);
#311=EDGE_LOOP('',(#524,#525,#526,#527));
#312=AXIS2_PLACEMENT_3D('',#528,#529,#530);
#313=EDGE_LOOP('',(#531,#532,#533,#534));
#314=AXIS2_PLACEMENT_3D('',#535,#536,#537);
#315=EDGE_LOOP('',(#538,#539,#540,#541));
#316=AXIS2_PLACEMENT_3D('',#542,#543,#544);
#317=EDGE_LOOP('',(#545,#546,#547,#548));
#318=AXIS2_PLACEMENT_3D('',#549,#550,#551);
#319=EDGE_LOOP('',(#552,#553,#554,#555));
#320=AXIS2_PLACEMENT_3D('',#556,#557,#558);
#321=EDGE_LOOP('',(#559,#560,#561,#562));
#322=AXIS2_PLACEMENT_3D('',#563,#564,#565);
#323=EDGE_LOOP('',(#566,#567,#568,#569));
#324=AXIS2_PLACEMENT_3D('',#570,#571,#572);
#325=EDGE_LOOP('',(#573,#574,#575,#576));
#326=AXIS2_PLACEMENT_3D('',#577,#578,#579);
#327=EDGE_LOOP('',(#580,#581,#582,#583));
#328=AXIS2_PLACEMENT_3D('',#584,#585,#586);
#329=EDGE_LOOP('',(#587,#588,#589,#590));
#330=AXIS2_PLACEMENT_3D('',#591,#592,#593);
#331=EDGE_LOOP('',(#594,#595,#596,#597));
#332=AXIS2_PLACEMENT_3D('',#598,#599,#600);
#333=EDGE_LOOP('',(#601,#602,#603,#604));
#334=AXIS2_PLACEMENT_3D('',#605,#606,#607);
#335=EDGE_LOOP('',(#608,#609,#610,#611));
#336=AXIS2_PLACEMENT_3D('',#612,#613,#614);
#337=EDGE_LOOP('',(#615,#616,#617,#618));
#338=AXIS2_PLACEMENT_3D('',#619,#620,#621);
#339=EDGE_LOOP('',(#622,#623,#624,#625));
#340=AXIS2_PLACEMENT_3D('',#626,#627,#628);
#341=EDGE_LOOP('',(#629,#630,#631,#632));
#342=EDGE_LOOP('',(#633,#634,#635,#636,#637,#638,#639,#640,#641,#642,#643,#644));
#343=EDGE_LOOP('',(#645,#646,#647,#648,#649,#650,#651,#652));
#344=EDGE_LOOP('',(#653,#654,#655,#656,#657,#658,#659,#660));
#345=AXIS2_PLACEMENT_3D('',#661,#662,#663);
#346=EDGE_LOOP('',(#664,#665,#666,#667));
#347=AXIS2_PLACEMENT_3D('',#668,#669,#670);
#348=ORIENTED_EDGE('',*,*,#671,.T.);
#349=ORIENTED_EDGE('',*,*,#672,.T.);
#350=ORIENTED_EDGE('',*,*,#673,.F.);
#351=ORIENTED_EDGE('',*,*,#674,.F.);
#352=ORIENTED_EDGE('',*,*,#675,.T.);
#353=ORIENTED_EDGE('',*,*,#676,.T.);
#354=ORIENTED_EDGE('',*,*,#674,.T.);
#355=ORIENTED_EDGE('',*,*,#673,.T.);
#356=ORIENTED_EDGE('',*,*,#677,.F.);
#357=ORIENTED_EDGE('',*,*,#678,.F.);
#358=ORIENTED_EDGE('',*,*,#675,.F.);
#359=ORIENTED_EDGE('',*,*,#672,.F.);
#360=ORIENTED_EDGE('',*,*,#679,.F.);
#361=ORIENTED_EDGE('',*,*,#680,.T.);
#362=ORIENTED_EDGE('',*,*,#681,.T.);
#363=ORIENTED_EDGE('',*,*,#682,.T.);
#364=ORIENTED_EDGE('',*,*,#683,.T.);
#365=ORIENTED_EDGE('',*,*,#677,.T.);
#366=ORIENTED_EDGE('',*,*,#684,.T.);
#367=CARTESIAN_POINT('',(-1.503772819,-1.507221095,0.74));
#368=DIRECTION('',(0.0,0.0,1.0));
#369=DIRECTION('',(1.0,0.0,0.0));
#370=ORIENTED_EDGE('',*,*,#679,.T.);
#371=ORIENTED_EDGE('',*,*,#671,.F.);
#372=ORIENTED_EDGE('',*,*,#676,.F.);
#373=ORIENTED_EDGE('',*,*,#678,.T.);
#374=ORIENTED_EDGE('',*,*,#684,.F.);
#375=ORIENTED_EDGE('',*,*,#685,.T.);
#376=ORIENTED_EDGE('',*,*,#686,.T.);
#377=ORIENTED_EDGE('',*,*,#687,.F.);
#378=ORIENTED_EDGE('',*,*,#688,.F.);
#379=ORIENTED_EDGE('',*,*,#689,.F.);
#380=ORIENTED_EDGE('',*,*,#690,.T.);
#381=ORIENTED_EDGE('',*,*,#691,.T.);
#382=ORIENTED_EDGE('',*,*,#692,.T.);
#383=CARTESIAN_POINT('',(0.846227181,-1.357221095,-1.11022302462516E-016));
#384=DIRECTION('',(0.0,0.0,1.0));
#385=DIRECTION('',(1.0,0.0,0.0));
#386=ORIENTED_EDGE('',*,*,#693,.T.);
#387=ORIENTED_EDGE('',*,*,#694,.T.);
#388=ORIENTED_EDGE('',*,*,#695,.F.);
#389=ORIENTED_EDGE('',*,*,#696,.F.);
#390=ORIENTED_EDGE('',*,*,#697,.F.);
#391=ORIENTED_EDGE('',*,*,#698,.T.);
#392=ORIENTED_EDGE('',*,*,#699,.T.);
#393=ORIENTED_EDGE('',*,*,#700,.T.);
#394=CARTESIAN_POINT('',(-1.353772819,-1.357221095,-1.11022302462516E-016));
#395=DIRECTION('',(0.0,0.0,1.0));
#396=DIRECTION('',(1.0,0.0,0.0));
#397=ORIENTED_EDGE('',*,*,#701,.T.);
#398=ORIENTED_EDGE('',*,*,#702,.T.);
#399=ORIENTED_EDGE('',*,*,#703,.F.);
#400=ORIENTED_EDGE('',*,*,#704,.F.);
#401=ORIENTED_EDGE('',*,*,#705,.F.);
#402=ORIENTED_EDGE('',*,*,#706,.F.);
#403=ORIENTED_EDGE('',*,*,#707,.F.);
#404=ORIENTED_EDGE('',*,*,#708,.F.);
#405=ORIENTED_EDGE('',*,*,#709,.F.);
#406=ORIENTED_EDGE('',*,*,#710,.F.);
#407=ORIENTED_EDGE('',*,*,#711,.F.);
#408=ORIENTED_EDGE('',*,*,#712,.T.);
#409=CARTESIAN_POINT('',(-0.503772819,-1.357221095,-1.11022302462516E-016));
#410=DIRECTION('',(0.0,0.0,1.0));
#411=DIRECTION('',(1.0,0.0,0.0));
#412=ORIENTED_EDGE('',*,*,#713,.T.);
#413=ORIENTED_EDGE('',*,*,#680,.F.);
#414=ORIENTED_EDGE('',*,*,#714,.F.);
#415=ORIENTED_EDGE('',*,*,#715,.F.);
#416=CARTESIAN_POINT('',(1.496227181,-1.507221095,0.0499999999999999));
#417=DIRECTION('',(-1.0,0.0,0.0));
#418=DIRECTION('',(0.0,0.0,1.0));
#419=ORIENTED_EDGE('',*,*,#716,.F.);
#420=ORIENTED_EDGE('',*,*,#682,.F.);
#421=ORIENTED_EDGE('',*,*,#717,.T.);
#422=ORIENTED_EDGE('',*,*,#718,.F.);
#423=CARTESIAN_POINT('',(-1.503772819,-1.507221095,0.43));
#424=DIRECTION('',(1.0,0.0,0.0));
#425=DIRECTION('',(0.0,1.0,0.0));
#426=ORIENTED_EDGE('',*,*,#717,.F.);
#427=ORIENTED_EDGE('',*,*,#681,.F.);
#428=ORIENTED_EDGE('',*,*,#713,.F.);
#429=ORIENTED_EDGE('',*,*,#719,.F.);
#430=CARTESIAN_POINT('',(-1.503772819,1.492778905,0.43));
#431=DIRECTION('',(0.0,-1.0,0.0));
#432=DIRECTION('',(0.0,0.0,-1.0));
#433=ORIENTED_EDGE('',*,*,#720,.F.);
#434=ORIENTED_EDGE('',*,*,#721,.T.);
#435=ORIENTED_EDGE('',*,*,#686,.F.);
#436=ORIENTED_EDGE('',*,*,#722,.T.);
#437=CARTESIAN_POINT('',(1.346227181,-1.257221095,-1.11022302462516E-016));
#438=DIRECTION('',(-1.0,0.0,0.0));
#439=DIRECTION('',(0.0,0.0,1.0));
#440=ORIENTED_EDGE('',*,*,#722,.F.);
#441=ORIENTED_EDGE('',*,*,#685,.F.);
#442=ORIENTED_EDGE('',*,*,#723,.T.);
#443=ORIENTED_EDGE('',*,*,#724,.F.);
#444=CARTESIAN_POINT('',(1.246227181,1.242778905,-1.11022302462516E-016));
#445=DIRECTION('',(-0.0,-0.0,1.0));
#446=DIRECTION('',(1.0,0.0,0.0));
#447=ORIENTED_EDGE('',*,*,#725,.F.);
#448=ORIENTED_EDGE('',*,*,#723,.F.);
#449=ORIENTED_EDGE('',*,*,#692,.F.);
#450=ORIENTED_EDGE('',*,*,#726,.T.);
#451=CARTESIAN_POINT('',(0.946227181,1.342778905,0.0499999999999999));
#452=DIRECTION('',(0.0,-1.0,0.0));
#453=DIRECTION('',(0.0,0.0,-1.0));
#454=ORIENTED_EDGE('',*,*,#726,.F.);
#455=ORIENTED_EDGE('',*,*,#691,.F.);
#456=ORIENTED_EDGE('',*,*,#727,.T.);
#457=ORIENTED_EDGE('',*,*,#728,.F.);
#458=CARTESIAN_POINT('',(0.946227181,1.242778905,-1.11022302462516E-016));
#459=DIRECTION('',(-0.0,-0.0,1.0));
#460=DIRECTION('',(1.0,0.0,0.0));
#461=ORIENTED_EDGE('',*,*,#729,.F.);
#462=ORIENTED_EDGE('',*,*,#727,.F.);
#463=ORIENTED_EDGE('',*,*,#690,.F.);
#464=ORIENTED_EDGE('',*,*,#730,.T.);
#465=CARTESIAN_POINT('',(0.846227181,-1.257221095,0.0499999999999999));
#466=DIRECTION('',(1.0,0.0,0.0));
#467=DIRECTION('',(0.0,1.0,0.0));
#468=ORIENTED_EDGE('',*,*,#730,.F.);
#469=ORIENTED_EDGE('',*,*,#689,.T.);
#470=ORIENTED_EDGE('',*,*,#731,.T.);
#471=ORIENTED_EDGE('',*,*,#732,.F.);
#472=CARTESIAN_POINT('',(0.946227181,-1.257221095,-1.11022302462516E-016));
#473=DIRECTION('',(-0.0,-0.0,1.0));
#474=DIRECTION('',(1.0,0.0,0.0));
#475=ORIENTED_EDGE('',*,*,#733,.F.);
#476=ORIENTED_EDGE('',*,*,#731,.F.);
#477=ORIENTED_EDGE('',*,*,#688,.T.);
#478=ORIENTED_EDGE('',*,*,#734,.T.);
#479=CARTESIAN_POINT('',(0.946227181,-1.357221095,-1.11022302462516E-016));
#480=DIRECTION('',(-0.0,1.0,0.0));
#481=DIRECTION('',(1.0,0.0,0.0));
#482=ORIENTED_EDGE('',*,*,#734,.F.);
#483=ORIENTED_EDGE('',*,*,#687,.T.);
#484=ORIENTED_EDGE('',*,*,#721,.F.);
#485=ORIENTED_EDGE('',*,*,#735,.F.);
#486=CARTESIAN_POINT('',(1.246227181,-1.257221095,-1.11022302462516E-016));
#487=DIRECTION('',(-0.0,-0.0,1.0));
#488=DIRECTION('',(1.0,0.0,0.0));
#489=ORIENTED_EDGE('',*,*,#736,.F.);
#490=ORIENTED_EDGE('',*,*,#737,.T.);
#491=ORIENTED_EDGE('',*,*,#694,.F.);
#492=ORIENTED_EDGE('',*,*,#738,.T.);
#493=CARTESIAN_POINT('',(-0.853772819,1.242778905,-1.11022302462516E-016));
#494=DIRECTION('',(-1.0,0.0,0.0));
#495=DIRECTION('',(0.0,0.0,1.0));
#496=ORIENTED_EDGE('',*,*,#738,.F.);
#497=ORIENTED_EDGE('',*,*,#693,.F.);
#498=ORIENTED_EDGE('',*,*,#739,.T.);
#499=ORIENTED_EDGE('',*,*,#740,.F.);
#500=CARTESIAN_POINT('',(-0.953772819,1.242778905,-1.11022302462516E-016));
#501=DIRECTION('',(-0.0,-0.0,1.0));
#502=DIRECTION('',(1.0,0.0,0.0));
#503=ORIENTED_EDGE('',*,*,#741,.F.);
#504=ORIENTED_EDGE('',*,*,#739,.F.);
#505=ORIENTED_EDGE('',*,*,#700,.F.);
#506=ORIENTED_EDGE('',*,*,#742,.T.);
#507=CARTESIAN_POINT('',(-1.253772819,1.342778905,0.0499999999999999));
#508=DIRECTION('',(0.0,-1.0,0.0));
#509=DIRECTION('',(0.0,0.0,-1.0));
#510=ORIENTED_EDGE('',*,*,#742,.F.);
#511=ORIENTED_EDGE('',*,*,#699,.F.);
#512=ORIENTED_EDGE('',*,*,#743,.T.);
#513=ORIENTED_EDGE('',*,*,#744,.F.);
#514=CARTESIAN_POINT('',(-1.253772819,1.242778905,-1.11022302462516E-016));
#515=DIRECTION('',(-0.0,-0.0,1.0));
#516=DIRECTION('',(1.0,0.0,0.0));
#517=ORIENTED_EDGE('',*,*,#745,.F.);
#518=ORIENTED_EDGE('',*,*,#743,.F.);
#519=ORIENTED_EDGE('',*,*,#698,.F.);
#520=ORIENTED_EDGE('',*,*,#746,.T.);
#521=CARTESIAN_POINT('',(-1.353772819,-1.257221095,-1.11022302462516E-016));
#522=DIRECTION('',(1.0,0.0,0.0));
#523=DIRECTION('',(0.0,1.0,0.0));
#524=ORIENTED_EDGE('',*,*,#746,.F.);
#525=ORIENTED_EDGE('',*,*,#697,.T.);
#526=ORIENTED_EDGE('',*,*,#747,.T.);
#527=ORIENTED_EDGE('',*,*,#748,.F.);
#528=CARTESIAN_POINT('',(-1.253772819,-1.257221095,-1.11022302462516E-016));
#529=DIRECTION('',(-0.0,-0.0,1.0));
#530=DIRECTION('',(1.0,0.0,0.0));
#531=ORIENTED_EDGE('',*,*,#749,.F.);
#532=ORIENTED_EDGE('',*,*,#747,.F.);
#533=ORIENTED_EDGE('',*,*,#696,.T.);
#534=ORIENTED_EDGE('',*,*,#750,.T.);
#535=CARTESIAN_POINT('',(-1.253772819,-1.357221095,-1.11022302462516E-016));
#536=DIRECTION('',(-0.0,1.0,0.0));
#537=DIRECTION('',(1.0,0.0,0.0));
#538=ORIENTED_EDGE('',*,*,#750,.F.);
#539=ORIENTED_EDGE('',*,*,#695,.T.);
#540=ORIENTED_EDGE('',*,*,#737,.F.);
#541=ORIENTED_EDGE('',*,*,#751,.F.);
#542=CARTESIAN_POINT('',(-0.953772819,-1.257221095,-1.11022302462516E-016));
#543=DIRECTION('',(-0.0,-0.0,1.0));
#544=DIRECTION('',(1.0,0.0,0.0));
#545=ORIENTED_EDGE('',*,*,#752,.F.);
#546=ORIENTED_EDGE('',*,*,#753,.T.);
#547=ORIENTED_EDGE('',*,*,#702,.F.);
#548=ORIENTED_EDGE('',*,*,#754,.T.);
#549=CARTESIAN_POINT('',(-0.403772819,1.342778905,0.0499999999999999));
#550=DIRECTION('',(0.0,-1.0,0.0));
#551=DIRECTION('',(0.0,0.0,-1.0));
#552=ORIENTED_EDGE('',*,*,#754,.F.);
#553=ORIENTED_EDGE('',*,*,#701,.F.);
#554=ORIENTED_EDGE('',*,*,#755,.T.);
#555=ORIENTED_EDGE('',*,*,#756,.F.);
#556=CARTESIAN_POINT('',(-0.403772819,1.242778905,-1.11022302462516E-016));
#557=DIRECTION('',(-0.0,-0.0,1.0));
#558=DIRECTION('',(1.0,0.0,0.0));
#559=ORIENTED_EDGE('',*,*,#757,.F.);
#560=ORIENTED_EDGE('',*,*,#755,.F.);
#561=ORIENTED_EDGE('',*,*,#712,.F.);
#562=ORIENTED_EDGE('',*,*,#758,.T.);
#563=CARTESIAN_POINT('',(-0.503772819,-1.257221095,0.0499999999999999));
#564=DIRECTION('',(1.0,0.0,0.0));
#565=DIRECTION('',(0.0,1.0,0.0));
#566=ORIENTED_EDGE('',*,*,#758,.F.);
#567=ORIENTED_EDGE('',*,*,#711,.T.);
#568=ORIENTED_EDGE('',*,*,#759,.T.);
#569=ORIENTED_EDGE('',*,*,#760,.F.);
#570=CARTESIAN_POINT('',(-0.403772819,-1.257221095,-1.11022302462516E-016));
#571=DIRECTION('',(-0.0,-0.0,1.0));
#572=DIRECTION('',(1.0,0.0,0.0));
#573=ORIENTED_EDGE('',*,*,#761,.F.);
#574=ORIENTED_EDGE('',*,*,#759,.F.);
#575=ORIENTED_EDGE('',*,*,#710,.T.);
#576=ORIENTED_EDGE('',*,*,#762,.T.);
#577=CARTESIAN_POINT('',(-0.403772819,-1.357221095,-1.11022302462516E-016));
#578=DIRECTION('',(-0.0,1.0,0.0));
#579=DIRECTION('',(1.0,0.0,0.0));
#580=ORIENTED_EDGE('',*,*,#762,.F.);
#581=ORIENTED_EDGE('',*,*,#709,.T.);
#582=ORIENTED_EDGE('',*,*,#763,.T.);
#583=ORIENTED_EDGE('',*,*,#764,.F.);
#584=CARTESIAN_POINT('',(0.396227181,-1.257221095,-1.11022302462516E-016));
#585=DIRECTION('',(-0.0,-0.0,1.0));
#586=DIRECTION('',(1.0,0.0,0.0));
#587=ORIENTED_EDGE('',*,*,#765,.F.);
#588=ORIENTED_EDGE('',*,*,#763,.F.);
#589=ORIENTED_EDGE('',*,*,#708,.T.);
#590=ORIENTED_EDGE('',*,*,#766,.T.);
#591=CARTESIAN_POINT('',(0.496227181,-0.25217007,-1.11022302462516E-016));
#592=DIRECTION('',(-1.0,0.0,0.0));
#593=DIRECTION('',(0.0,0.0,1.0));
#594=ORIENTED_EDGE('',*,*,#766,.F.);
#595=ORIENTED_EDGE('',*,*,#707,.T.);
#596=ORIENTED_EDGE('',*,*,#767,.F.);
#597=ORIENTED_EDGE('',*,*,#768,.F.);
#598=CARTESIAN_POINT('',(0.446227181,-0.25217007,-1.11022302462516E-016));
#599=DIRECTION('',(-0.0,-0.0,1.0));
#600=DIRECTION('',(1.0,0.0,0.0));
#601=ORIENTED_EDGE('',*,*,#767,.T.);
#602=ORIENTED_EDGE('',*,*,#706,.T.);
#603=ORIENTED_EDGE('',*,*,#769,.T.);
#604=ORIENTED_EDGE('',*,*,#770,.F.);
#605=CARTESIAN_POINT('',(0.496227181,-0.007221095,-1.11022302462516E-016));
#606=DIRECTION('',(-0.0,-0.0,1.0));
#607=DIRECTION('',(1.0,0.0,0.0));
#608=ORIENTED_EDGE('',*,*,#769,.F.);
#609=ORIENTED_EDGE('',*,*,#705,.T.);
#610=ORIENTED_EDGE('',*,*,#771,.T.);
#611=ORIENTED_EDGE('',*,*,#772,.F.);
#612=CARTESIAN_POINT('',(0.446227181,0.237727879,-1.11022302462516E-016));
#613=DIRECTION('',(-0.0,-0.0,1.0));
#614=DIRECTION('',(1.0,0.0,0.0));
#615=ORIENTED_EDGE('',*,*,#773,.F.);
#616=ORIENTED_EDGE('',*,*,#771,.F.);
#617=ORIENTED_EDGE('',*,*,#704,.T.);
#618=ORIENTED_EDGE('',*,*,#774,.T.);
#619=CARTESIAN_POINT('',(0.496227181,0.237727879,-1.11022302462516E-016));
#620=DIRECTION('',(-1.0,0.0,0.0));
#621=DIRECTION('',(0.0,0.0,1.0));
#622=ORIENTED_EDGE('',*,*,#774,.F.);
#623=ORIENTED_EDGE('',*,*,#703,.T.);
#624=ORIENTED_EDGE('',*,*,#753,.F.);
#625=ORIENTED_EDGE('',*,*,#775,.F.);
#626=CARTESIAN_POINT('',(0.396227181,1.242778905,-1.11022302462516E-016));
#627=DIRECTION('',(-0.0,-0.0,1.0));
#628=DIRECTION('',(1.0,0.0,0.0));
#629=ORIENTED_EDGE('',*,*,#718,.T.);
#630=ORIENTED_EDGE('',*,*,#719,.T.);
#631=ORIENTED_EDGE('',*,*,#715,.T.);
#632=ORIENTED_EDGE('',*,*,#776,.T.);
#633=ORIENTED_EDGE('',*,*,#773,.T.);
#634=ORIENTED_EDGE('',*,*,#775,.T.);
#635=ORIENTED_EDGE('',*,*,#752,.T.);
#636=ORIENTED_EDGE('',*,*,#756,.T.);
#637=ORIENTED_EDGE('',*,*,#757,.T.);
#638=ORIENTED_EDGE('',*,*,#760,.T.);
#639=ORIENTED_EDGE('',*,*,#761,.T.);
#640=ORIENTED_EDGE('',*,*,#764,.T.);
#641=ORIENTED_EDGE('',*,*,#765,.T.);
#642=ORIENTED_EDGE('',*,*,#768,.T.);
#643=ORIENTED_EDGE('',*,*,#770,.T.);
#644=ORIENTED_EDGE('',*,*,#772,.T.);
#645=ORIENTED_EDGE('',*,*,#749,.T.);
#646=ORIENTED_EDGE('',*,*,#751,.T.);
#647=ORIENTED_EDGE('',*,*,#736,.T.);
#648=ORIENTED_EDGE('',*,*,#740,.T.);
#649=ORIENTED_EDGE('',*,*,#741,.T.);
#650=ORIENTED_EDGE('',*,*,#744,.T.);
#651=ORIENTED_EDGE('',*,*,#745,.T.);
#652=ORIENTED_EDGE('',*,*,#748,.T.);
#653=ORIENTED_EDGE('',*,*,#733,.T.);
#654=ORIENTED_EDGE('',*,*,#735,.T.);
#655=ORIENTED_EDGE('',*,*,#720,.T.);
#656=ORIENTED_EDGE('',*,*,#724,.T.);
#657=ORIENTED_EDGE('',*,*,#725,.T.);
#658=ORIENTED_EDGE('',*,*,#728,.T.);
#659=ORIENTED_EDGE('',*,*,#729,.T.);
#660=ORIENTED_EDGE('',*,*,#732,.T.);
#661=CARTESIAN_POINT('',(1.496227181,-1.507221095,0.0499999999999999));
#662=DIRECTION('',(0.0,0.0,-1.0));
#663=DIRECTION('',(0.0,-1.0,0.0));
#664=ORIENTED_EDGE('',*,*,#714,.T.);
#665=ORIENTED_EDGE('',*,*,#683,.F.);
#666=ORIENTED_EDGE('',*,*,#716,.T.);
#667=ORIENTED_EDGE('',*,*,#776,.F.);
#668=CARTESIAN_POINT('',(-1.503772819,-1.507221095,0.0499999999999999));
#669=DIRECTION('',(-0.0,1.0,0.0));
#670=DIRECTION('',(1.0,0.0,0.0));
#671=EDGE_CURVE('',#777,#778,#779,.T.);
#672=EDGE_CURVE('',#778,#780,#781,.T.);
#673=EDGE_CURVE('',#782,#780,#783,.T.);
#674=EDGE_CURVE('',#777,#782,#784,.T.);
#675=EDGE_CURVE('',#780,#785,#786,.T.);
#676=EDGE_CURVE('',#785,#777,#787,.T.);
#677=EDGE_CURVE('',#788,#789,#790,.T.);
#678=EDGE_CURVE('',#785,#788,#791,.T.);
#679=EDGE_CURVE('',#789,#778,#792,.T.);
#680=EDGE_CURVE('',#793,#794,#795,.T.);
#681=EDGE_CURVE('',#794,#796,#797,.T.);
#682=EDGE_CURVE('',#796,#798,#799,.T.);
#683=EDGE_CURVE('',#798,#793,#800,.T.);
#684=EDGE_CURVE('',#789,#788,#801,.T.);
#685=EDGE_CURVE('',#802,#803,#804,.T.);
#686=EDGE_CURVE('',#803,#805,#806,.T.);
#687=EDGE_CURVE('',#807,#805,#808,.T.);
#688=EDGE_CURVE('',#809,#807,#810,.T.);
#689=EDGE_CURVE('',#811,#809,#812,.T.);
#690=EDGE_CURVE('',#811,#813,#814,.T.);
#691=EDGE_CURVE('',#813,#815,#816,.T.);
#692=EDGE_CURVE('',#815,#802,#817,.T.);
#693=EDGE_CURVE('',#818,#819,#820,.T.);
#694=EDGE_CURVE('',#819,#821,#822,.T.);
#695=EDGE_CURVE('',#823,#821,#824,.T.);
#696=EDGE_CURVE('',#825,#823,#826,.T.);
#697=EDGE_CURVE('',#827,#825,#828,.T.);
#698=EDGE_CURVE('',#827,#829,#830,.T.);
#699=EDGE_CURVE('',#829,#831,#832,.T.);
#700=EDGE_CURVE('',#831,#818,#833,.T.);
#701=EDGE_CURVE('',#834,#835,#836,.T.);
#702=EDGE_CURVE('',#835,#837,#838,.T.);
#703=EDGE_CURVE('',#839,#837,#840,.T.);
#704=EDGE_CURVE('',#841,#839,#842,.T.);
#705=EDGE_CURVE('',#843,#841,#844,.T.);
#706=EDGE_CURVE('',#845,#843,#846,.T.);
#707=EDGE_CURVE('',#847,#845,#848,.T.);
#708=EDGE_CURVE('',#849,#847,#850,.T.);
#709=EDGE_CURVE('',#851,#849,#852,.T.);
#710=EDGE_CURVE('',#853,#851,#854,.T.);
#711=EDGE_CURVE('',#855,#853,#856,.T.);
#712=EDGE_CURVE('',#855,#834,#857,.T.);
#713=EDGE_CURVE('',#858,#794,#859,.T.);
#714=EDGE_CURVE('',#860,#793,#861,.T.);
#715=EDGE_CURVE('',#858,#860,#862,.T.);
#716=EDGE_CURVE('',#798,#863,#864,.T.);
#717=EDGE_CURVE('',#796,#865,#866,.T.);
#718=EDGE_CURVE('',#863,#865,#867,.T.);
#719=EDGE_CURVE('',#865,#858,#868,.T.);
#720=EDGE_CURVE('',#869,#870,#871,.T.);
#721=EDGE_CURVE('',#869,#805,#872,.T.);
#722=EDGE_CURVE('',#803,#870,#873,.T.);
#723=EDGE_CURVE('',#802,#874,#875,.T.);
#724=EDGE_CURVE('',#870,#874,#876,.T.);
#725=EDGE_CURVE('',#874,#877,#878,.T.);
#726=EDGE_CURVE('',#815,#877,#879,.T.);
#727=EDGE_CURVE('',#813,#880,#881,.T.);
#728=EDGE_CURVE('',#877,#880,#882,.T.);
#729=EDGE_CURVE('',#880,#883,#884,.T.);
#730=EDGE_CURVE('',#811,#883,#885,.T.);
#731=EDGE_CURVE('',#809,#886,#887,.T.);
#732=EDGE_CURVE('',#883,#886,#888,.T.);
#733=EDGE_CURVE('',#886,#889,#890,.T.);
#734=EDGE_CURVE('',#807,#889,#891,.T.);
#735=EDGE_CURVE('',#889,#869,#892,.T.);
#736=EDGE_CURVE('',#893,#894,#895,.T.);
#737=EDGE_CURVE('',#893,#821,#896,.T.);
#738=EDGE_CURVE('',#819,#894,#897,.T.);
#739=EDGE_CURVE('',#818,#898,#899,.T.);
#740=EDGE_CURVE('',#894,#898,#900,.T.);
#741=EDGE_CURVE('',#898,#901,#902,.T.);
#742=EDGE_CURVE('',#831,#901,#903,.T.);
#743=EDGE_CURVE('',#829,#904,#905,.T.);
#744=EDGE_CURVE('',#901,#904,#906,.T.);
#745=EDGE_CURVE('',#904,#907,#908,.T.);
#746=EDGE_CURVE('',#827,#907,#909,.T.);
#747=EDGE_CURVE('',#825,#910,#911,.T.);
#748=EDGE_CURVE('',#907,#910,#912,.T.);
#749=EDGE_CURVE('',#910,#913,#914,.T.);
#750=EDGE_CURVE('',#823,#913,#915,.T.);
#751=EDGE_CURVE('',#913,#893,#916,.T.);
#752=EDGE_CURVE('',#917,#918,#919,.T.);
#753=EDGE_CURVE('',#917,#837,#920,.T.);
#754=EDGE_CURVE('',#835,#918,#921,.T.);
#755=EDGE_CURVE('',#834,#922,#923,.T.);
#756=EDGE_CURVE('',#918,#922,#924,.T.);
#757=EDGE_CURVE('',#922,#925,#926,.T.);
#758=EDGE_CURVE('',#855,#925,#927,.T.);
#759=EDGE_CURVE('',#853,#928,#929,.T.);
#760=EDGE_CURVE('',#925,#928,#930,.T.);
#761=EDGE_CURVE('',#928,#931,#932,.T.);
#762=EDGE_CURVE('',#851,#931,#933,.T.);
#763=EDGE_CURVE('',#849,#934,#935,.T.);
#764=EDGE_CURVE('',#931,#934,#936,.T.);
#765=EDGE_CURVE('',#934,#937,#938,.T.);
#766=EDGE_CURVE('',#847,#937,#939,.T.);
#767=EDGE_CURVE('',#940,#845,#941,.T.);
#768=EDGE_CURVE('',#937,#940,#942,.T.);
#769=EDGE_CURVE('',#843,#943,#944,.T.);
#770=EDGE_CURVE('',#940,#943,#945,.T.);
#771=EDGE_CURVE('',#841,#946,#947,.T.);
#772=EDGE_CURVE('',#943,#946,#948,.T.);
#773=EDGE_CURVE('',#946,#949,#950,.T.);
#774=EDGE_CURVE('',#839,#949,#951,.T.);
#775=EDGE_CURVE('',#949,#917,#952,.T.);
#776=EDGE_CURVE('',#860,#863,#953,.T.);
#777=VERTEX_POINT('',#954);
#778=VERTEX_POINT('',#955);
#779=ELLIPSE('',#956,1.07314900713901,1.07303451463907);
#780=VERTEX_POINT('',#957);
#781=ELLIPSE('',#958,1.07314943159157,1.07303547790391);
#782=VERTEX_POINT('',#959);
#783=(B_SPLINE_CURVE(2,(#961,#962,#963),.UNSPECIFIED.,.F.,.F.)B_SPLINE_CURVE_WITH_KNOTS((3,3),(-1.0,-0.000337511771607568),.UNSPECIFIED.)RATIONAL_B_SPLINE_CURVE((1.0,1.43887621434417,1.00029625177724))BOUNDED_CURVE()REPRESENTATION_ITEM('')GEOMETRIC_REPRESENTATION_ITEM()CURVE());
#784=(B_SPLINE_CURVE(2,(#971,#972,#973),.UNSPECIFIED.,.F.,.F.)B_SPLINE_CURVE_WITH_KNOTS((3,3),(-1.0,-0.000337511771607568),.UNSPECIFIED.)RATIONAL_B_SPLINE_CURVE((1.00029625177724,1.43887621434417,1.0))BOUNDED_CURVE()REPRESENTATION_ITEM('')GEOMETRIC_REPRESENTATION_ITEM()CURVE());
#785=VERTEX_POINT('',#980);
#786=ELLIPSE('',#981,1.07314900735906,1.07303451646697);
#787=ELLIPSE('',#982,1.07314943188571,1.07303547818762);
#788=VERTEX_POINT('',#983);
#789=VERTEX_POINT('',#984);
#790=CIRCLE('',#985,1.2417865285);
#791=ELLIPSE('',#986,0.200350571710666,0.200133599303145);
#792=ELLIPSE('',#987,0.200349779909014,0.200132674669926);
#793=VERTEX_POINT('',#988);
#794=VERTEX_POINT('',#989);
#795=LINE('',#990,#991);
#796=VERTEX_POINT('',#992);
#797=LINE('',#993,#994);
#798=VERTEX_POINT('',#995);
#799=LINE('',#996,#997);
#800=LINE('',#998,#999);
#801=CIRCLE('',#1000,1.2417865285);
#802=VERTEX_POINT('',#1001);
#803=VERTEX_POINT('',#1002);
#804=CIRCLE('',#1003,0.1);
#805=VERTEX_POINT('',#1004);
#806=LINE('',#1005,#1006);
#807=VERTEX_POINT('',#1007);
#808=CIRCLE('',#1008,0.1);
#809=VERTEX_POINT('',#1009);
#810=LINE('',#1010,#1011);
#811=VERTEX_POINT('',#1012);
#812=CIRCLE('',#1013,0.1);
#813=VERTEX_POINT('',#1014);
#814=LINE('',#1015,#1016);
#815=VERTEX_POINT('',#1017);
#816=CIRCLE('',#1018,0.1);
#817=LINE('',#1019,#1020);
#818=VERTEX_POINT('',#1021);
#819=VERTEX_POINT('',#1022);
#820=CIRCLE('',#1023,0.1);
#821=VERTEX_POINT('',#1024);
#822=LINE('',#1025,#1026);
#823=VERTEX_POINT('',#1027);
#824=CIRCLE('',#1028,0.1);
#825=VERTEX_POINT('',#1029);
#826=LINE('',#1030,#1031);
#827=VERTEX_POINT('',#1032);
#828=CIRCLE('',#1033,0.0999999999999998);
#829=VERTEX_POINT('',#1034);
#830=LINE('',#1035,#1036);
#831=VERTEX_POINT('',#1037);
#832=CIRCLE('',#1038,0.0999999999999998);
#833=LINE('',#1039,#1040);
#834=VERTEX_POINT('',#1041);
#835=VERTEX_POINT('',#1042);
#836=CIRCLE('',#1043,0.1);
#837=VERTEX_POINT('',#1044);
#838=LINE('',#1045,#1046);
#839=VERTEX_POINT('',#1047);
#840=CIRCLE('',#1048,0.0999999999999999);
#841=VERTEX_POINT('',#1049);
#842=LINE('',#1050,#1051);
#843=VERTEX_POINT('',#1052);
#844=CIRCLE('',#1053,0.05);
#845=VERTEX_POINT('',#1054);
#846=CIRCLE('',#1055,0.2);
#847=VERTEX_POINT('',#1056);
#848=CIRCLE('',#1057,0.05);
#849=VERTEX_POINT('',#1058);
#850=LINE('',#1059,#1060);
#851=VERTEX_POINT('',#1061);
#852=CIRCLE('',#1062,0.0999999999999999);
#853=VERTEX_POINT('',#1063);
#854=LINE('',#1064,#1065);
#855=VERTEX_POINT('',#1066);
#856=CIRCLE('',#1067,0.1);
#857=LINE('',#1068,#1069);
#858=VERTEX_POINT('',#1070);
#859=LINE('',#1071,#1072);
#860=VERTEX_POINT('',#1073);
#861=LINE('',#1074,#1075);
#862=LINE('',#1076,#1077);
#863=VERTEX_POINT('',#1078);
#864=LINE('',#1079,#1080);
#865=VERTEX_POINT('',#1081);
#866=LINE('',#1082,#1083);
#867=LINE('',#1084,#1085);
#868=LINE('',#1086,#1087);
#869=VERTEX_POINT('',#1088);
#870=VERTEX_POINT('',#1089);
#871=LINE('',#1090,#1091);
#872=LINE('',#1092,#1093);
#873=LINE('',#1094,#1095);
#874=VERTEX_POINT('',#1096);
#875=LINE('',#1097,#1098);
#876=CIRCLE('',#1099,0.1);
#877=VERTEX_POINT('',#1100);
#878=LINE('',#1101,#1102);
#879=LINE('',#1103,#1104);
#880=VERTEX_POINT('',#1105);
#881=LINE('',#1106,#1107);
#882=CIRCLE('',#1108,0.1);
#883=VERTEX_POINT('',#1109);
#884=LINE('',#1110,#1111);
#885=LINE('',#1112,#1113);
#886=VERTEX_POINT('',#1114);
#887=LINE('',#1115,#1116);
#888=CIRCLE('',#1117,0.1);
#889=VERTEX_POINT('',#1118);
#890=LINE('',#1119,#1120);
#891=LINE('',#1121,#1122);
#892=CIRCLE('',#1123,0.1);
#893=VERTEX_POINT('',#1124);
#894=VERTEX_POINT('',#1125);
#895=LINE('',#1126,#1127);
#896=LINE('',#1128,#1129);
#897=LINE('',#1130,#1131);
#898=VERTEX_POINT('',#1132);
#899=LINE('',#1133,#1134);
#900=CIRCLE('',#1135,0.1);
#901=VERTEX_POINT('',#1136);
#902=LINE('',#1137,#1138);
#903=LINE('',#1139,#1140);
#904=VERTEX_POINT('',#1141);
#905=LINE('',#1142,#1143);
#906=CIRCLE('',#1144,0.0999999999999998);
#907=VERTEX_POINT('',#1145);
#908=LINE('',#1146,#1147);
#909=LINE('',#1148,#1149);
#910=VERTEX_POINT('',#1150);
#911=LINE('',#1151,#1152);
#912=CIRCLE('',#1153,0.0999999999999998);
#913=VERTEX_POINT('',#1154);
#914=LINE('',#1155,#1156);
#915=LINE('',#1157,#1158);
#916=CIRCLE('',#1159,0.1);
#917=VERTEX_POINT('',#1160);
#918=VERTEX_POINT('',#1161);
#919=LINE('',#1162,#1163);
#920=LINE('',#1164,#1165);
#921=LINE('',#1166,#1167);
#922=VERTEX_POINT('',#1168);
#923=LINE('',#1169,#1170);
#924=CIRCLE('',#1171,0.1);
#925=VERTEX_POINT('',#1172);
#926=LINE('',#1173,#1174);
#927=LINE('',#1175,#1176);
#928=VERTEX_POINT('',#1177);
#929=LINE('',#1178,#1179);
#930=CIRCLE('',#1180,0.1);
#931=VERTEX_POINT('',#1181);
#932=LINE('',#1182,#1183);
#933=LINE('',#1184,#1185);
#934=VERTEX_POINT('',#1186);
#935=LINE('',#1187,#1188);
#936=CIRCLE('',#1189,0.0999999999999999);
#937=VERTEX_POINT('',#1190);
#938=LINE('',#1191,#1192);
#939=LINE('',#1193,#1194);
#940=VERTEX_POINT('',#1195);
#941=LINE('',#1196,#1197);
#942=CIRCLE('',#1198,0.05);
#943=VERTEX_POINT('',#1199);
#944=LINE('',#1200,#1201);
#945=CIRCLE('',#1202,0.2);
#946=VERTEX_POINT('',#1203);
#947=LINE('',#1204,#1205);
#948=CIRCLE('',#1206,0.05);
#949=VERTEX_POINT('',#1207);
#950=LINE('',#1208,#1209);
#951=LINE('',#1210,#1211);
#952=CIRCLE('',#1212,0.0999999999999999);
#953=LINE('',#1213,#1214);
#954=CARTESIAN_POINT('',(-0.00377281924999995,1.06572825398274,0.90300000009082));
#955=CARTESIAN_POINT('',(-1.07672216871954,-0.00722109525000009,0.903000000161889));
#956=AXIS2_PLACEMENT_3D('',#1215,#1216,#1217);
#957=CARTESIAN_POINT('',(-0.00377281925000004,-1.08017044472885,0.903000000112686));
#958=AXIS2_PLACEMENT_3D('',#1218,#1219,#1220);
#959=CARTESIAN_POINT('',(-0.003772819,-0.007221095,1.932));
#961=CARTESIAN_POINT('',(-0.003772819,-0.007221095,1.932));
#962=CARTESIAN_POINT('',(-0.003772819,-0.88687471,1.932));
#963=CARTESIAN_POINT('',(-0.00377281925000004,-1.08017044472885,0.903000000112686));
#971=CARTESIAN_POINT('',(-0.00377281924999995,1.06572825398274,0.90300000009082));
#972=CARTESIAN_POINT('',(-0.003772819,0.872432519,1.932));
#973=CARTESIAN_POINT('',(-0.003772819,-0.007221095,1.932));
#980=CARTESIAN_POINT('',(1.06917652996964,-0.00722109525000013,0.90300000016135));
#981=AXIS2_PLACEMENT_3D('',#1221,#1222,#1223);
#982=AXIS2_PLACEMENT_3D('',#1224,#1225,#1226);
#983=CARTESIAN_POINT('',(1.238013709,-0.007221095,0.74));
#984=CARTESIAN_POINT('',(-1.245559348,-0.007221095,0.74));
#985=AXIS2_PLACEMENT_3D('',#1227,#1228,#1229);
#986=AXIS2_PLACEMENT_3D('',#1230,#1231,#1232);
#987=AXIS2_PLACEMENT_3D('',#1233,#1234,#1235);
#988=CARTESIAN_POINT('',(1.496227181,-1.507221095,0.74));
#989=CARTESIAN_POINT('',(1.496227181,1.492778905,0.74));
#990=CARTESIAN_POINT('',(1.496227181,-0.0072210949999998,0.74));
#991=VECTOR('',#1236,1000.0);
#992=CARTESIAN_POINT('',(-1.503772819,1.492778905,0.74));
#993=CARTESIAN_POINT('',(-0.00377281899999996,1.492778905,0.74));
#994=VECTOR('',#1237,1000.0);
#995=CARTESIAN_POINT('',(-1.503772819,-1.507221095,0.74));
#996=CARTESIAN_POINT('',(-1.503772819,-0.0072210949999998,0.74));
#997=VECTOR('',#1238,1000.0);
#998=CARTESIAN_POINT('',(-0.00377281899999996,-1.507221095,0.74));
#999=VECTOR('',#1239,1000.0);
#1000=AXIS2_PLACEMENT_3D('',#1240,#1241,#1242);
#1001=CARTESIAN_POINT('',(1.246227181,1.342778905,-1.11022302462516E-016));
#1002=CARTESIAN_POINT('',(1.346227181,1.242778905,-1.11022302462516E-016));
#1003=AXIS2_PLACEMENT_3D('',#1243,#1244,#1245);
#1004=CARTESIAN_POINT('',(1.346227181,-1.25722109500898,-1.11022302462516E-016));
#1005=CARTESIAN_POINT('',(1.346227181,-0.0072210949999998,-1.11022302462516E-016));
#1006=VECTOR('',#1246,1000.0);
#1007=CARTESIAN_POINT('',(1.24622718098077,-1.357221095,-1.11022302462516E-016));
#1008=AXIS2_PLACEMENT_3D('',#1247,#1248,#1249);
#1009=CARTESIAN_POINT('',(0.946227181,-1.357221095,-1.11022302462516E-016));
#1010=CARTESIAN_POINT('',(1.096227181,-1.357221095,-1.11022302462516E-016));
#1011=VECTOR('',#1250,1000.0);
#1012=CARTESIAN_POINT('',(0.846227181,-1.25722109502051,-1.11022302462516E-016));
#1013=AXIS2_PLACEMENT_3D('',#1251,#1252,#1253);
#1014=CARTESIAN_POINT('',(0.846227181,1.242778905,-1.11022302462516E-016));
#1015=CARTESIAN_POINT('',(0.846227181,-0.0072210949999998,-1.11022302462516E-016));
#1016=VECTOR('',#1254,1000.0);
#1017=CARTESIAN_POINT('',(0.946227180989745,1.342778905,-1.11022302462516E-016));
#1018=AXIS2_PLACEMENT_3D('',#1255,#1256,#1257);
#1019=CARTESIAN_POINT('',(1.096227181,1.342778905,-1.11022302462516E-016));
#1020=VECTOR('',#1258,1000.0);
#1021=CARTESIAN_POINT('',(-0.953772819,1.342778905,-1.11022302462516E-016));
#1022=CARTESIAN_POINT('',(-0.853772819,1.242778905,-1.11022302462516E-016));
#1023=AXIS2_PLACEMENT_3D('',#1259,#1260,#1261);
#1024=CARTESIAN_POINT('',(-0.853772819,-1.25722109500898,-1.11022302462516E-016));
#1025=CARTESIAN_POINT('',(-0.853772819,-0.0072210949999998,-1.11022302462516E-016));
#1026=VECTOR('',#1262,1000.0);
#1027=CARTESIAN_POINT('',(-0.953772819019235,-1.357221095,-1.11022302462516E-016));
#1028=AXIS2_PLACEMENT_3D('',#1263,#1264,#1265);
#1029=CARTESIAN_POINT('',(-1.253772819,-1.357221095,-1.11022302462516E-016));
#1030=CARTESIAN_POINT('',(-1.103772819,-1.357221095,-1.11022302462516E-016));
#1031=VECTOR('',#1266,1000.0);
#1032=CARTESIAN_POINT('',(-1.353772819,-1.25722109502051,-1.11022302462516E-016));
#1033=AXIS2_PLACEMENT_3D('',#1267,#1268,#1269);
#1034=CARTESIAN_POINT('',(-1.353772819,1.242778905,-1.11022302462516E-016));
#1035=CARTESIAN_POINT('',(-1.353772819,-0.0072210949999998,-1.11022302462516E-016));
#1036=VECTOR('',#1270,1000.0);
#1037=CARTESIAN_POINT('',(-1.25377281901026,1.342778905,-1.11022302462516E-016));
#1038=AXIS2_PLACEMENT_3D('',#1271,#1272,#1273);
#1039=CARTESIAN_POINT('',(-1.103772819,1.342778905,-1.11022302462516E-016));
#1040=VECTOR('',#1274,1000.0);
#1041=CARTESIAN_POINT('',(-0.503772819,1.242778905,-1.11022302462516E-016));
#1042=CARTESIAN_POINT('',(-0.403772819010255,1.342778905,-1.11022302462516E-016));
#1043=AXIS2_PLACEMENT_3D('',#1275,#1276,#1277);
#1044=CARTESIAN_POINT('',(0.396227180989745,1.342778905,-1.11022302462516E-016));
#1045=CARTESIAN_POINT('',(-0.00377281899999998,1.342778905,-1.11022302462516E-016));
#1046=VECTOR('',#1278,1000.0);
#1047=CARTESIAN_POINT('',(0.496227181,1.242778905,-1.11022302462516E-016));
#1048=AXIS2_PLACEMENT_3D('',#1279,#1280,#1281);
#1049=CARTESIAN_POINT('',(0.496227181,0.237727879,-1.11022302462516E-016));
#1050=CARTESIAN_POINT('',(0.496227181,-0.0072210949999998,-1.11022302462516E-016));
#1051=VECTOR('',#1282,1000.0);
#1052=CARTESIAN_POINT('',(0.456227181001167,0.188738084144575,-1.11022302462516E-016));
#1053=AXIS2_PLACEMENT_3D('',#1283,#1284,#1285);
#1054=CARTESIAN_POINT('',(0.456227181096313,-0.203180274442314,-1.11022302462516E-016));
#1055=AXIS2_PLACEMENT_3D('',#1286,#1287,#1288);
#1056=CARTESIAN_POINT('',(0.496227181,-0.25217007,-1.11022302462516E-016));
#1057=AXIS2_PLACEMENT_3D('',#1289,#1290,#1291);
#1058=CARTESIAN_POINT('',(0.496227181,-1.257221095,-1.11022302462516E-016));
#1059=CARTESIAN_POINT('',(0.496227181,-0.0072210949999998,-1.11022302462516E-016));
#1060=VECTOR('',#1292,1000.0);
#1061=CARTESIAN_POINT('',(0.396227180980766,-1.357221095,-1.11022302462516E-016));
#1062=AXIS2_PLACEMENT_3D('',#1293,#1294,#1295);
#1063=CARTESIAN_POINT('',(-0.403772819,-1.357221095,-1.11022302462516E-016));
#1064=CARTESIAN_POINT('',(-0.00377281900000001,-1.357221095,-1.11022302462516E-016));
#1065=VECTOR('',#1296,1000.0);
#1066=CARTESIAN_POINT('',(-0.503772819,-1.25722109502051,-1.11022302462516E-016));
#1067=AXIS2_PLACEMENT_3D('',#1297,#1298,#1299);
#1068=CARTESIAN_POINT('',(-0.503772819,-0.0072210949999998,-1.11022302462516E-016));
#1069=VECTOR('',#1300,1000.0);
#1070=CARTESIAN_POINT('',(1.496227181,1.492778905,0.0499999999999999));
#1071=CARTESIAN_POINT('',(1.496227181,1.492778905,0.24));
#1072=VECTOR('',#1301,1000.0);
#1073=CARTESIAN_POINT('',(1.496227181,-1.507221095,0.0499999999999999));
#1074=CARTESIAN_POINT('',(1.496227181,-1.507221095,0.24));
#1075=VECTOR('',#1302,1000.0);
#1076=CARTESIAN_POINT('',(1.496227181,-0.0072210949999998,0.0499999999999999));
#1077=VECTOR('',#1303,1000.0);
#1078=CARTESIAN_POINT('',(-1.503772819,-1.507221095,0.0499999999999999));
#1079=CARTESIAN_POINT('',(-1.503772819,-1.507221095,0.24));
#1080=VECTOR('',#1304,1000.0);
#1081=CARTESIAN_POINT('',(-1.503772819,1.492778905,0.0499999999999999));
#1082=CARTESIAN_POINT('',(-1.503772819,1.492778905,0.24));
#1083=VECTOR('',#1305,1000.0);
#1084=CARTESIAN_POINT('',(-1.503772819,-0.0072210949999998,0.0499999999999999));
#1085=VECTOR('',#1306,1000.0);
#1086=CARTESIAN_POINT('',(-0.00377281899999996,1.492778905,0.0499999999999999));
#1087=VECTOR('',#1307,1000.0);
#1088=CARTESIAN_POINT('',(1.346227181,-1.25722109500898,0.0499999999999999));
#1089=CARTESIAN_POINT('',(1.346227181,1.242778905,0.0499999999999999));
#1090=CARTESIAN_POINT('',(1.346227181,-0.00722109499999991,0.0499999999999999));
#1091=VECTOR('',#1308,1000.0);
#1092=CARTESIAN_POINT('',(1.346227181,-1.25722109501796,0.0249999999999999));
#1093=VECTOR('',#1309,1000.0);
#1094=CARTESIAN_POINT('',(1.346227181,1.242778905,0.0249999999999999));
#1095=VECTOR('',#1310,1000.0);
#1096=CARTESIAN_POINT('',(1.246227181,1.342778905,0.0499999999999999));
#1097=CARTESIAN_POINT('',(1.246227181,1.342778905,0.0249999999999999));
#1098=VECTOR('',#1311,1000.0);
#1099=AXIS2_PLACEMENT_3D('',#1312,#1313,#1314);
#1100=CARTESIAN_POINT('',(0.946227180989745,1.342778905,0.0499999999999999));
#1101=CARTESIAN_POINT('',(-0.00377281900000006,1.342778905,0.0499999999999999));
#1102=VECTOR('',#1315,1000.0);
#1103=CARTESIAN_POINT('',(0.94622718097949,1.342778905,0.0249999999999999));
#1104=VECTOR('',#1316,1000.0);
#1105=CARTESIAN_POINT('',(0.8462271805,1.242778905,0.0499999999999999));
#1106=CARTESIAN_POINT('',(0.846227181,1.242778905,0.0249999999999999));
#1107=VECTOR('',#1317,1000.0);
#1108=AXIS2_PLACEMENT_3D('',#1318,#1319,#1320);
#1109=CARTESIAN_POINT('',(0.8462271805,-1.25722109502051,0.0499999999999999));
#1110=CARTESIAN_POINT('',(0.84622718,-0.00722109499999969,0.0499999999999999));
#1111=VECTOR('',#1321,1000.0);
#1112=CARTESIAN_POINT('',(0.846227181,-1.25722109504102,0.0249999999999999));
#1113=VECTOR('',#1322,1000.0);
#1114=CARTESIAN_POINT('',(0.946227181,-1.357221095,0.0499999999999999));
#1115=CARTESIAN_POINT('',(0.946227181,-1.357221095,0.0249999999999999));
#1116=VECTOR('',#1323,1000.0);
#1117=AXIS2_PLACEMENT_3D('',#1324,#1325,#1326);
#1118=CARTESIAN_POINT('',(1.24622718098077,-1.357221095,0.0499999999999999));
#1119=CARTESIAN_POINT('',(-0.00377281900000006,-1.357221095,0.0499999999999999));
#1120=VECTOR('',#1327,1000.0);
#1121=CARTESIAN_POINT('',(1.24622718096153,-1.357221095,0.0249999999999999));
#1122=VECTOR('',#1328,1000.0);
#1123=AXIS2_PLACEMENT_3D('',#1329,#1330,#1331);
#1124=CARTESIAN_POINT('',(-0.8537728185,-1.25722109500898,0.0499999999999999));
#1125=CARTESIAN_POINT('',(-0.8537728185,1.242778905,0.0499999999999999));
#1126=CARTESIAN_POINT('',(-0.853772818,-0.0072210949999998,0.0499999999999999));
#1127=VECTOR('',#1332,1000.0);
#1128=CARTESIAN_POINT('',(-0.853772819,-1.25722109501796,0.0249999999999999));
#1129=VECTOR('',#1333,1000.0);
#1130=CARTESIAN_POINT('',(-0.853772819,1.242778905,0.0249999999999999));
#1131=VECTOR('',#1334,1000.0);
#1132=CARTESIAN_POINT('',(-0.953772819,1.342778905,0.0499999999999999));
#1133=CARTESIAN_POINT('',(-0.953772819,1.342778905,0.0249999999999999));
#1134=VECTOR('',#1335,1000.0);
#1135=AXIS2_PLACEMENT_3D('',#1336,#1337,#1338);
#1136=CARTESIAN_POINT('',(-1.25377281901026,1.342778905,0.0499999999999999));
#1137=CARTESIAN_POINT('',(-0.00377281900000006,1.342778905,0.0499999999999999));
#1138=VECTOR('',#1339,1000.0);
#1139=CARTESIAN_POINT('',(-1.25377281902051,1.342778905,0.0249999999999999));
#1140=VECTOR('',#1340,1000.0);
#1141=CARTESIAN_POINT('',(-1.353772819,1.242778905,0.0499999999999999));
#1142=CARTESIAN_POINT('',(-1.353772819,1.242778905,0.0249999999999999));
#1143=VECTOR('',#1341,1000.0);
#1144=AXIS2_PLACEMENT_3D('',#1342,#1343,#1344);
#1145=CARTESIAN_POINT('',(-1.353772819,-1.25722109502051,0.0499999999999999));
#1146=CARTESIAN_POINT('',(-1.353772819,-0.0072210949999998,0.0499999999999999));
#1147=VECTOR('',#1345,1000.0);
#1148=CARTESIAN_POINT('',(-1.353772819,-1.25722109504102,0.0249999999999999));
#1149=VECTOR('',#1346,1000.0);
#1150=CARTESIAN_POINT('',(-1.253772819,-1.357221095,0.0499999999999999));
#1151=CARTESIAN_POINT('',(-1.253772819,-1.357221095,0.0249999999999999));
#1152=VECTOR('',#1347,1000.0);
#1153=AXIS2_PLACEMENT_3D('',#1348,#1349,#1350);
#1154=CARTESIAN_POINT('',(-0.953772819019235,-1.357221095,0.0499999999999999));
#1155=CARTESIAN_POINT('',(-0.00377281900000006,-1.357221095,0.0499999999999999));
#1156=VECTOR('',#1351,1000.0);
#1157=CARTESIAN_POINT('',(-0.953772819038469,-1.357221095,0.0249999999999999));
#1158=VECTOR('',#1352,1000.0);
#1159=AXIS2_PLACEMENT_3D('',#1353,#1354,#1355);
#1160=CARTESIAN_POINT('',(0.396227180989745,1.342778905,0.0499999999999999));
#1161=CARTESIAN_POINT('',(-0.403772819010255,1.342778905,0.0499999999999999));
#1162=CARTESIAN_POINT('',(-0.00377281900000006,1.342778905,0.0499999999999999));
#1163=VECTOR('',#1356,1000.0);
#1164=CARTESIAN_POINT('',(0.39622718097949,1.342778905,0.0249999999999999));
#1165=VECTOR('',#1357,1000.0);
#1166=CARTESIAN_POINT('',(-0.40377281902051,1.342778905,0.0249999999999999));
#1167=VECTOR('',#1358,1000.0);
#1168=CARTESIAN_POINT('',(-0.5037728195,1.242778905,0.0499999999999999));
#1169=CARTESIAN_POINT('',(-0.503772819,1.242778905,0.0249999999999999));
#1170=VECTOR('',#1359,1000.0);
#1171=AXIS2_PLACEMENT_3D('',#1360,#1361,#1362);
#1172=CARTESIAN_POINT('',(-0.5037728195,-1.25722109502051,0.0499999999999999));
#1173=CARTESIAN_POINT('',(-0.50377282,-0.0072210949999998,0.0499999999999999));
#1174=VECTOR('',#1363,1000.0);
#1175=CARTESIAN_POINT('',(-0.503772819,-1.25722109504102,0.0249999999999999));
#1176=VECTOR('',#1364,1000.0);
#1177=CARTESIAN_POINT('',(-0.403772819,-1.357221095,0.0499999999999999));
#1178=CARTESIAN_POINT('',(-0.403772819,-1.357221095,0.0249999999999999));
#1179=VECTOR('',#1365,1000.0);
#1180=AXIS2_PLACEMENT_3D('',#1366,#1367,#1368);
#1181=CARTESIAN_POINT('',(0.396227180980766,-1.357221095,0.0499999999999999));
#1182=CARTESIAN_POINT('',(-0.00377281900000006,-1.357221095,0.0499999999999999));
#1183=VECTOR('',#1369,1000.0);
#1184=CARTESIAN_POINT('',(0.396227180961531,-1.357221095,0.0249999999999999));
#1185=VECTOR('',#1370,1000.0);
#1186=CARTESIAN_POINT('',(0.4962271815,-1.257221095,0.0499999999999999));
#1187=CARTESIAN_POINT('',(0.496227181,-1.257221095,0.0249999999999999));
#1188=VECTOR('',#1371,1000.0);
#1189=AXIS2_PLACEMENT_3D('',#1372,#1373,#1374);
#1190=CARTESIAN_POINT('',(0.4962271815,-0.25217007,0.0499999999999999));
#1191=CARTESIAN_POINT('',(0.496227182,-0.00722109499999991,0.0499999999999999));
#1192=VECTOR('',#1375,1000.0);
#1193=CARTESIAN_POINT('',(0.496227181,-0.25217007,0.0249999999999999));
#1194=VECTOR('',#1376,1000.0);
#1195=CARTESIAN_POINT('',(0.456227181025603,-0.203180274788722,0.0499999999999999));
#1196=CARTESIAN_POINT('',(0.456227181079489,-0.20318027443888,0.0249999999999999));
#1197=VECTOR('',#1377,1000.0);
#1198=AXIS2_PLACEMENT_3D('',#1378,#1379,#1380);
#1199=CARTESIAN_POINT('',(0.456227180973897,0.188738084278167,0.0499999999999999));
#1200=CARTESIAN_POINT('',(0.456227180991426,0.188738084142586,0.0249999999999999));
#1201=VECTOR('',#1381,1000.0);
#1202=AXIS2_PLACEMENT_3D('',#1382,#1383,#1384);
#1203=CARTESIAN_POINT('',(0.4962271815,0.237727879,0.0499999999999999));
#1204=CARTESIAN_POINT('',(0.496227181,0.237727879,0.0249999999999999));
#1205=VECTOR('',#1385,1000.0);
#1206=AXIS2_PLACEMENT_3D('',#1386,#1387,#1388);
#1207=CARTESIAN_POINT('',(0.4962271815,1.242778905,0.0499999999999999));
#1208=CARTESIAN_POINT('',(0.496227182,-0.00722109499999991,0.0499999999999999));
#1209=VECTOR('',#1389,1000.0);
#1210=CARTESIAN_POINT('',(0.496227181,1.242778905,0.0249999999999999));
#1211=VECTOR('',#1390,1000.0);
#1212=AXIS2_PLACEMENT_3D('',#1391,#1392,#1393);
#1213=CARTESIAN_POINT('',(-0.00377281899999996,-1.507221095,0.0499999999999999));
#1214=VECTOR('',#1394,1000.0);
#1215=CARTESIAN_POINT('',(-0.00360185310311954,-0.00733489931938846,0.902999999632207));
#1216=DIRECTION('',(4.28065133749837E-010,-4.27317979796596E-010,1.0));
#1217=DIRECTION('',(0.865781298652757,0.500422564342522,-1.56771228166421E-010));
#1218=CARTESIAN_POINT('',(-0.00360119869422728,-0.00710655819538192,0.902999999847686));
#1219=DIRECTION('',(2.92763728765337E-010,2.75152195211696E-010,1.0));
#1220=DIRECTION('',(0.866262974907462,-0.49958828879836,-1.16147564260339E-010));
#1221=CARTESIAN_POINT('',(-0.00394378632504801,-0.00710729005691132,0.902999999680242));
#1222=DIRECTION('',(-3.91906153100957E-010,4.02936578107058E-010,1.0));
#1223=DIRECTION('',(0.865781578831127,0.500422079605487,1.37666767619927E-010));
#1224=CARTESIAN_POINT('',(-0.00394444075279809,-0.00733563243137859,0.902999999828248));
#1225=DIRECTION('',(-3.10374565348367E-010,-2.77100575023769E-010,1.0));
#1226=DIRECTION('',(0.86626502898134,-0.499584727112387,1.30431416690639E-010));
#1227=CARTESIAN_POINT('',(-0.00377281949999975,-0.0072210945000144,0.74));
#1228=DIRECTION('',(0.0,0.0,-1.0));
#1229=DIRECTION('',(1.0,-4.02634098794097E-010,0.0));
#1230=CARTESIAN_POINT('',(1.26616444157528,-0.00722109557169395,0.938348534828662));
#1231=DIRECTION('',(-1.63306379136553E-009,-1.0,-6.1230317688386E-017));
#1232=DIRECTION('',(0.118553282248448,-1.93605011788976E-010,-0.992947692110778));
#1233=CARTESIAN_POINT('',(-1.27370925664317,-0.00722109501357196,0.938347681165935));
#1234=DIRECTION('',(4.82131001977487E-010,-1.0,-6.12303176783373E-017));
#1235=DIRECTION('',(-0.120027825136322,-5.78690748104985E-011,-0.992770527963559));
#1236=DIRECTION('',(0.0,1.0,0.0));
#1237=DIRECTION('',(-1.0,-0.0,-0.0));
#1238=DIRECTION('',(-0.0,-1.0,-0.0));
#1239=DIRECTION('',(1.0,0.0,0.0));
#1240=CARTESIAN_POINT('',(-0.00377281949999997,-0.00722109549998962,0.74));
#1241=DIRECTION('',(0.0,0.0,-1.0));
#1242=DIRECTION('',(-1.0,4.02637331354631E-010,0.0));
#1243=CARTESIAN_POINT('',(1.246227181,1.242778905,-1.11022302462516E-016));
#1244=DIRECTION('',(0.0,0.0,-1.0));
#1245=DIRECTION('',(1.0,0.0,0.0));
#1246=DIRECTION('',(-0.0,-1.0,-0.0));
#1247=CARTESIAN_POINT('',(1.246227181,-1.257221095,-1.11022302462516E-016));
#1248=DIRECTION('',(0.0,0.0,1.0));
#1249=DIRECTION('',(1.0,0.0,0.0));
#1250=DIRECTION('',(1.0,0.0,0.0));
#1251=CARTESIAN_POINT('',(0.946227181,-1.257221095,-1.11022302462516E-016));
#1252=DIRECTION('',(0.0,0.0,1.0));
#1253=DIRECTION('',(1.0,0.0,0.0));
#1254=DIRECTION('',(0.0,1.0,0.0));
#1255=CARTESIAN_POINT('',(0.946227181,1.242778905,-1.11022302462516E-016));
#1256=DIRECTION('',(0.0,0.0,-1.0));
#1257=DIRECTION('',(1.0,0.0,0.0));
#1258=DIRECTION('',(1.0,0.0,0.0));
#1259=CARTESIAN_POINT('',(-0.953772819,1.242778905,-1.11022302462516E-016));
#1260=DIRECTION('',(0.0,0.0,-1.0));
#1261=DIRECTION('',(1.0,0.0,0.0));
#1262=DIRECTION('',(0.0,-1.0,0.0));
#1263=CARTESIAN_POINT('',(-0.953772819,-1.257221095,-1.11022302462516E-016));
#1264=DIRECTION('',(0.0,0.0,1.0));
#1265=DIRECTION('',(1.0,0.0,0.0));
#1266=DIRECTION('',(1.0,0.0,0.0));
#1267=CARTESIAN_POINT('',(-1.253772819,-1.257221095,-1.11022302462516E-016));
#1268=DIRECTION('',(0.0,0.0,1.0));
#1269=DIRECTION('',(1.0,0.0,0.0));
#1270=DIRECTION('',(0.0,1.0,0.0));
#1271=CARTESIAN_POINT('',(-1.253772819,1.242778905,-1.11022302462516E-016));
#1272=DIRECTION('',(0.0,0.0,-1.0));
#1273=DIRECTION('',(1.0,0.0,0.0));
#1274=DIRECTION('',(1.0,0.0,0.0));
#1275=CARTESIAN_POINT('',(-0.403772819,1.242778905,-1.11022302462516E-016));
#1276=DIRECTION('',(0.0,0.0,-1.0));
#1277=DIRECTION('',(1.0,0.0,0.0));
#1278=DIRECTION('',(1.0,0.0,0.0));
#1279=CARTESIAN_POINT('',(0.396227181,1.242778905,-1.11022302462516E-016));
#1280=DIRECTION('',(0.0,0.0,1.0));
#1281=DIRECTION('',(1.0,0.0,0.0));
#1282=DIRECTION('',(0.0,1.0,0.0));
#1283=CARTESIAN_POINT('',(0.446227181,0.237727879,-1.11022302462516E-016));
#1284=DIRECTION('',(0.0,0.0,1.0));
#1285=DIRECTION('',(1.0,0.0,0.0));
#1286=CARTESIAN_POINT('',(0.496227181,-0.007221095,-1.11022302462516E-016));
#1287=DIRECTION('',(0.0,0.0,-1.0));
#1288=DIRECTION('',(1.0,8.89384594617015E-016,0.0));
#1289=CARTESIAN_POINT('',(0.446227181,-0.25217007,-1.11022302462516E-016));
#1290=DIRECTION('',(0.0,0.0,1.0));
#1291=DIRECTION('',(1.0,0.0,0.0));
#1292=DIRECTION('',(0.0,1.0,0.0));
#1293=CARTESIAN_POINT('',(0.396227181,-1.257221095,-1.11022302462516E-016));
#1294=DIRECTION('',(0.0,0.0,1.0));
#1295=DIRECTION('',(1.0,0.0,0.0));
#1296=DIRECTION('',(1.0,0.0,0.0));
#1297=CARTESIAN_POINT('',(-0.403772819,-1.257221095,-1.11022302462516E-016));
#1298=DIRECTION('',(0.0,0.0,1.0));
#1299=DIRECTION('',(1.0,0.0,0.0));
#1300=DIRECTION('',(0.0,1.0,0.0));
#1301=DIRECTION('',(0.0,0.0,1.0));
#1302=DIRECTION('',(0.0,0.0,1.0));
#1303=DIRECTION('',(-0.0,-1.0,-0.0));
#1304=DIRECTION('',(0.0,0.0,-1.0));
#1305=DIRECTION('',(0.0,0.0,-1.0));
#1306=DIRECTION('',(0.0,1.0,0.0));
#1307=DIRECTION('',(1.0,0.0,0.0));
#1308=DIRECTION('',(0.0,1.0,0.0));
#1309=DIRECTION('',(-0.0,-0.0,-1.0));
#1310=DIRECTION('',(0.0,0.0,1.0));
#1311=DIRECTION('',(0.0,0.0,1.0));
#1312=CARTESIAN_POINT('',(1.246227181,1.242778905,0.0499999999999999));
#1313=DIRECTION('',(0.0,0.0,1.0));
#1314=DIRECTION('',(1.0,0.0,0.0));
#1315=DIRECTION('',(-1.0,0.0,0.0));
#1316=DIRECTION('',(0.0,0.0,1.0));
#1317=DIRECTION('',(0.0,0.0,1.0));
#1318=CARTESIAN_POINT('',(0.946227181,1.242778905,0.0499999999999999));
#1319=DIRECTION('',(0.0,0.0,1.0));
#1320=DIRECTION('',(1.0,0.0,0.0));
#1321=DIRECTION('',(-0.0,-1.0,-0.0));
#1322=DIRECTION('',(0.0,0.0,1.0));
#1323=DIRECTION('',(0.0,0.0,1.0));
#1324=CARTESIAN_POINT('',(0.946227181,-1.257221095,0.0499999999999999));
#1325=DIRECTION('',(0.0,0.0,1.0));
#1326=DIRECTION('',(1.0,0.0,0.0));
#1327=DIRECTION('',(1.0,0.0,0.0));
#1328=DIRECTION('',(0.0,0.0,1.0));
#1329=CARTESIAN_POINT('',(1.246227181,-1.257221095,0.0499999999999999));
#1330=DIRECTION('',(0.0,0.0,1.0));
#1331=DIRECTION('',(1.0,0.0,0.0));
#1332=DIRECTION('',(0.0,1.0,0.0));
#1333=DIRECTION('',(-0.0,-0.0,-1.0));
#1334=DIRECTION('',(0.0,0.0,1.0));
#1335=DIRECTION('',(0.0,0.0,1.0));
#1336=CARTESIAN_POINT('',(-0.953772819,1.242778905,0.0499999999999999));
#1337=DIRECTION('',(0.0,0.0,1.0));
#1338=DIRECTION('',(1.0,0.0,0.0));
#1339=DIRECTION('',(-1.0,0.0,0.0));
#1340=DIRECTION('',(0.0,0.0,1.0));
#1341=DIRECTION('',(0.0,0.0,1.0));
#1342=CARTESIAN_POINT('',(-1.253772819,1.242778905,0.0499999999999999));
#1343=DIRECTION('',(0.0,0.0,1.0));
#1344=DIRECTION('',(1.0,0.0,0.0));
#1345=DIRECTION('',(-0.0,-1.0,-0.0));
#1346=DIRECTION('',(0.0,0.0,1.0));
#1347=DIRECTION('',(0.0,0.0,1.0));
#1348=CARTESIAN_POINT('',(-1.253772819,-1.257221095,0.0499999999999999));
#1349=DIRECTION('',(0.0,0.0,1.0));
#1350=DIRECTION('',(1.0,0.0,0.0));
#1351=DIRECTION('',(1.0,0.0,0.0));
#1352=DIRECTION('',(0.0,0.0,1.0));
#1353=CARTESIAN_POINT('',(-0.953772819,-1.257221095,0.0499999999999999));
#1354=DIRECTION('',(0.0,0.0,1.0));
#1355=DIRECTION('',(1.0,0.0,0.0));
#1356=DIRECTION('',(-1.0,0.0,0.0));
#1357=DIRECTION('',(-0.0,-0.0,-1.0));
#1358=DIRECTION('',(0.0,0.0,1.0));
#1359=DIRECTION('',(0.0,0.0,1.0));
#1360=CARTESIAN_POINT('',(-0.403772819,1.242778905,0.0499999999999999));
#1361=DIRECTION('',(0.0,0.0,1.0));
#1362=DIRECTION('',(1.0,0.0,0.0));
#1363=DIRECTION('',(-0.0,-1.0,-0.0));
#1364=DIRECTION('',(0.0,0.0,1.0));
#1365=DIRECTION('',(0.0,0.0,1.0));
#1366=CARTESIAN_POINT('',(-0.403772819,-1.257221095,0.0499999999999999));
#1367=DIRECTION('',(0.0,0.0,1.0));
#1368=DIRECTION('',(1.0,0.0,0.0));
#1369=DIRECTION('',(1.0,0.0,0.0));
#1370=DIRECTION('',(0.0,0.0,1.0));
#1371=DIRECTION('',(0.0,0.0,1.0));
#1372=CARTESIAN_POINT('',(0.396227181,-1.257221095,0.0499999999999999));
#1373=DIRECTION('',(0.0,0.0,1.0));
#1374=DIRECTION('',(1.0,0.0,0.0));
#1375=DIRECTION('',(0.0,1.0,0.0));
#1376=DIRECTION('',(0.0,0.0,1.0));
#1377=DIRECTION('',(-0.0,-0.0,-1.0));
#1378=CARTESIAN_POINT('',(0.446227181,-0.25217007,0.0499999999999999));
#1379=DIRECTION('',(0.0,0.0,1.0));
#1380=DIRECTION('',(1.0,0.0,0.0));
#1381=DIRECTION('',(0.0,0.0,1.0));
#1382=CARTESIAN_POINT('',(0.496227181,-0.007221095,0.0499999999999999));
#1383=DIRECTION('',(0.0,0.0,-1.0));
#1384=DIRECTION('',(1.0,8.89384594617015E-016,0.0));
#1385=DIRECTION('',(0.0,0.0,1.0));
#1386=CARTESIAN_POINT('',(0.446227181,0.237727879,0.0499999999999999));
#1387=DIRECTION('',(0.0,0.0,1.0));
#1388=DIRECTION('',(1.0,0.0,0.0));
#1389=DIRECTION('',(0.0,1.0,0.0));
#1390=DIRECTION('',(0.0,0.0,1.0));
#1391=CARTESIAN_POINT('',(0.396227181,1.242778905,0.0499999999999999));
#1392=DIRECTION('',(0.0,0.0,1.0));
#1393=DIRECTION('',(1.0,0.0,0.0));
#1394=DIRECTION('',(-1.0,-0.0,-0.0));
ENDSEC;
END-ISO-10303-21;
